<?xml version="1.0" encoding="UTF-8"?>
<svg xmlns="http://www.w3.org/2000/svg" xmlns:xlink="http://www.w3.org/1999/xlink" width="756pt" height="216pt" viewBox="0 0 756 216" version="1.1">
<defs>
<g>
<symbol overflow="visible" id="glyph0-0">
<path style="stroke:none;" d="M 0.359375 0 L 0.359375 -7.921875 L 6.640625 -7.921875 L 6.640625 0 Z M 5.65625 -1 L 5.65625 -6.9375 L 1.34375 -6.9375 L 1.34375 -1 Z M 5.65625 -1 "/>
</symbol>
<symbol overflow="visible" id="glyph0-1">
<path style="stroke:none;" d="M 0.25 -0.890625 L 5.109375 -6.984375 L 0.609375 -6.984375 L 0.609375 -7.921875 L 6.5 -7.921875 L 6.5 -7 L 1.609375 -0.9375 L 6.5 -0.9375 L 6.5 0 L 0.25 0 Z M 3.546875 -7.921875 Z M 3.546875 -7.921875 "/>
</symbol>
<symbol overflow="visible" id="glyph0-2">
<path style="stroke:none;" d="M 3 -0.625 C 3.644531 -0.625 4.085938 -0.867188 4.328125 -1.359375 C 4.566406 -1.847656 4.6875 -2.390625 4.6875 -2.984375 C 4.6875 -3.523438 4.597656 -3.960938 4.421875 -4.296875 C 4.148438 -4.828125 3.679688 -5.09375 3.015625 -5.09375 C 2.421875 -5.09375 1.988281 -4.863281 1.71875 -4.40625 C 1.445312 -3.957031 1.3125 -3.414062 1.3125 -2.78125 C 1.3125 -2.164062 1.445312 -1.648438 1.71875 -1.234375 C 1.988281 -0.828125 2.414062 -0.625 3 -0.625 Z M 3.046875 -5.9375 C 3.785156 -5.9375 4.410156 -5.6875 4.921875 -5.1875 C 5.441406 -4.695312 5.703125 -3.972656 5.703125 -3.015625 C 5.703125 -2.078125 5.472656 -1.304688 5.015625 -0.703125 C 4.566406 -0.0976562 3.863281 0.203125 2.90625 0.203125 C 2.113281 0.203125 1.484375 -0.0625 1.015625 -0.59375 C 0.546875 -1.132812 0.3125 -1.859375 0.3125 -2.765625 C 0.3125 -3.734375 0.554688 -4.503906 1.046875 -5.078125 C 1.546875 -5.648438 2.210938 -5.9375 3.046875 -5.9375 Z M 3.015625 -5.921875 Z M 3.015625 -5.921875 "/>
</symbol>
<symbol overflow="visible" id="glyph0-3">
<path style="stroke:none;" d="M 0.71875 -5.78125 L 1.640625 -5.78125 L 1.640625 -4.953125 C 1.910156 -5.296875 2.195312 -5.539062 2.5 -5.6875 C 2.8125 -5.832031 3.148438 -5.90625 3.515625 -5.90625 C 4.335938 -5.90625 4.894531 -5.617188 5.1875 -5.046875 C 5.34375 -4.734375 5.421875 -4.285156 5.421875 -3.703125 L 5.421875 0 L 4.4375 0 L 4.4375 -3.640625 C 4.4375 -3.992188 4.382812 -4.28125 4.28125 -4.5 C 4.101562 -4.851562 3.789062 -5.03125 3.34375 -5.03125 C 3.113281 -5.03125 2.921875 -5.007812 2.765625 -4.96875 C 2.503906 -4.882812 2.273438 -4.722656 2.078125 -4.484375 C 1.910156 -4.296875 1.800781 -4.097656 1.75 -3.890625 C 1.707031 -3.691406 1.6875 -3.40625 1.6875 -3.03125 L 1.6875 0 L 0.71875 0 Z M 3 -5.921875 Z M 3 -5.921875 "/>
</symbol>
<symbol overflow="visible" id="glyph0-4">
<path style="stroke:none;" d="M 1.453125 -1.53125 C 1.453125 -1.25 1.554688 -1.023438 1.765625 -0.859375 C 1.972656 -0.703125 2.210938 -0.625 2.484375 -0.625 C 2.828125 -0.625 3.160156 -0.707031 3.484375 -0.875 C 4.023438 -1.132812 4.296875 -1.5625 4.296875 -2.15625 L 4.296875 -2.9375 C 4.171875 -2.863281 4.015625 -2.800781 3.828125 -2.75 C 3.640625 -2.695312 3.457031 -2.660156 3.28125 -2.640625 L 2.703125 -2.5625 C 2.347656 -2.519531 2.082031 -2.445312 1.90625 -2.34375 C 1.601562 -2.175781 1.453125 -1.90625 1.453125 -1.53125 Z M 3.8125 -3.5 C 4.03125 -3.53125 4.175781 -3.625 4.25 -3.78125 C 4.300781 -3.863281 4.328125 -3.988281 4.328125 -4.15625 C 4.328125 -4.488281 4.207031 -4.726562 3.96875 -4.875 C 3.726562 -5.019531 3.390625 -5.09375 2.953125 -5.09375 C 2.453125 -5.09375 2.09375 -4.957031 1.875 -4.6875 C 1.757812 -4.53125 1.679688 -4.304688 1.640625 -4.015625 L 0.734375 -4.015625 C 0.753906 -4.722656 0.984375 -5.21875 1.421875 -5.5 C 1.867188 -5.78125 2.390625 -5.921875 2.984375 -5.921875 C 3.660156 -5.921875 4.210938 -5.789062 4.640625 -5.53125 C 5.054688 -5.269531 5.265625 -4.867188 5.265625 -4.328125 L 5.265625 -1 C 5.265625 -0.894531 5.285156 -0.8125 5.328125 -0.75 C 5.367188 -0.6875 5.457031 -0.65625 5.59375 -0.65625 C 5.632812 -0.65625 5.679688 -0.65625 5.734375 -0.65625 C 5.785156 -0.664062 5.84375 -0.675781 5.90625 -0.6875 L 5.90625 0.03125 C 5.757812 0.0703125 5.644531 0.0976562 5.5625 0.109375 C 5.476562 0.117188 5.367188 0.125 5.234375 0.125 C 4.898438 0.125 4.660156 0.00390625 4.515625 -0.234375 C 4.429688 -0.359375 4.375 -0.535156 4.34375 -0.765625 C 4.144531 -0.503906 3.859375 -0.28125 3.484375 -0.09375 C 3.117188 0.09375 2.710938 0.1875 2.265625 0.1875 C 1.734375 0.1875 1.296875 0.0234375 0.953125 -0.296875 C 0.609375 -0.617188 0.4375 -1.023438 0.4375 -1.515625 C 0.4375 -2.046875 0.601562 -2.457031 0.9375 -2.75 C 1.28125 -3.050781 1.722656 -3.238281 2.265625 -3.3125 Z M 3 -5.921875 Z M 3 -5.921875 "/>
</symbol>
<symbol overflow="visible" id="glyph0-5">
<path style="stroke:none;" d=""/>
</symbol>
<symbol overflow="visible" id="glyph0-6">
<path style="stroke:none;" d="M 1.328125 -2.828125 C 1.328125 -2.203125 1.457031 -1.679688 1.71875 -1.265625 C 1.976562 -0.847656 2.398438 -0.640625 2.984375 -0.640625 C 3.429688 -0.640625 3.800781 -0.832031 4.09375 -1.21875 C 4.382812 -1.601562 4.53125 -2.160156 4.53125 -2.890625 C 4.53125 -3.617188 4.378906 -4.15625 4.078125 -4.5 C 3.773438 -4.851562 3.40625 -5.03125 2.96875 -5.03125 C 2.476562 -5.03125 2.082031 -4.84375 1.78125 -4.46875 C 1.476562 -4.09375 1.328125 -3.546875 1.328125 -2.828125 Z M 2.78125 -5.875 C 3.226562 -5.875 3.601562 -5.78125 3.90625 -5.59375 C 4.070312 -5.488281 4.265625 -5.300781 4.484375 -5.03125 L 4.484375 -7.953125 L 5.421875 -7.953125 L 5.421875 0 L 4.546875 0 L 4.546875 -0.796875 C 4.316406 -0.441406 4.046875 -0.1875 3.734375 -0.03125 C 3.429688 0.125 3.082031 0.203125 2.6875 0.203125 C 2.039062 0.203125 1.476562 -0.0664062 1 -0.609375 C 0.53125 -1.148438 0.296875 -1.867188 0.296875 -2.765625 C 0.296875 -3.609375 0.507812 -4.335938 0.9375 -4.953125 C 1.375 -5.566406 1.988281 -5.875 2.78125 -5.875 Z M 2.78125 -5.875 "/>
</symbol>
<symbol overflow="visible" id="glyph0-7">
<path style="stroke:none;" d="M 3.125 -5.90625 C 3.53125 -5.90625 3.925781 -5.804688 4.3125 -5.609375 C 4.695312 -5.421875 4.988281 -5.175781 5.1875 -4.875 C 5.382812 -4.582031 5.515625 -4.238281 5.578125 -3.84375 C 5.628906 -3.582031 5.65625 -3.160156 5.65625 -2.578125 L 1.421875 -2.578125 C 1.441406 -1.992188 1.582031 -1.523438 1.84375 -1.171875 C 2.101562 -0.816406 2.503906 -0.640625 3.046875 -0.640625 C 3.554688 -0.640625 3.960938 -0.804688 4.265625 -1.140625 C 4.429688 -1.328125 4.550781 -1.550781 4.625 -1.8125 L 5.578125 -1.8125 C 5.554688 -1.601562 5.472656 -1.367188 5.328125 -1.109375 C 5.191406 -0.847656 5.035156 -0.632812 4.859375 -0.46875 C 4.554688 -0.175781 4.191406 0.0195312 3.765625 0.125 C 3.523438 0.175781 3.257812 0.203125 2.96875 0.203125 C 2.25 0.203125 1.640625 -0.0546875 1.140625 -0.578125 C 0.640625 -1.097656 0.390625 -1.832031 0.390625 -2.78125 C 0.390625 -3.707031 0.640625 -4.457031 1.140625 -5.03125 C 1.648438 -5.613281 2.3125 -5.90625 3.125 -5.90625 Z M 4.671875 -3.34375 C 4.628906 -3.769531 4.535156 -4.109375 4.390625 -4.359375 C 4.117188 -4.828125 3.675781 -5.0625 3.0625 -5.0625 C 2.613281 -5.0625 2.238281 -4.898438 1.9375 -4.578125 C 1.632812 -4.253906 1.472656 -3.84375 1.453125 -3.34375 Z M 3.03125 -5.921875 Z M 3.03125 -5.921875 "/>
</symbol>
<symbol overflow="visible" id="glyph0-8">
<path style="stroke:none;" d="M 4.53125 -4.296875 C 5.03125 -4.296875 5.425781 -4.394531 5.71875 -4.59375 C 6.007812 -4.789062 6.15625 -5.15625 6.15625 -5.6875 C 6.15625 -6.25 5.953125 -6.632812 5.546875 -6.84375 C 5.328125 -6.945312 5.035156 -7 4.671875 -7 L 2.046875 -7 L 2.046875 -4.296875 Z M 0.96875 -7.921875 L 4.640625 -7.921875 C 5.242188 -7.921875 5.742188 -7.832031 6.140625 -7.65625 C 6.878906 -7.320312 7.25 -6.695312 7.25 -5.78125 C 7.25 -5.3125 7.148438 -4.925781 6.953125 -4.625 C 6.753906 -4.320312 6.484375 -4.078125 6.140625 -3.890625 C 6.441406 -3.765625 6.671875 -3.597656 6.828125 -3.390625 C 6.984375 -3.191406 7.070312 -2.863281 7.09375 -2.40625 L 7.125 -1.34375 C 7.132812 -1.039062 7.160156 -0.8125 7.203125 -0.65625 C 7.265625 -0.40625 7.378906 -0.242188 7.546875 -0.171875 L 7.546875 0 L 6.234375 0 C 6.203125 -0.0703125 6.171875 -0.160156 6.140625 -0.265625 C 6.117188 -0.367188 6.101562 -0.578125 6.09375 -0.890625 L 6.03125 -2.21875 C 6.007812 -2.726562 5.816406 -3.070312 5.453125 -3.25 C 5.242188 -3.34375 4.921875 -3.390625 4.484375 -3.390625 L 2.046875 -3.390625 L 2.046875 0 L 0.96875 0 Z M 0.96875 -7.921875 "/>
</symbol>
<symbol overflow="visible" id="glyph0-9">
<path style="stroke:none;" d="M 2.9375 -5.9375 C 3.59375 -5.9375 4.125 -5.78125 4.53125 -5.46875 C 4.9375 -5.15625 5.179688 -4.609375 5.265625 -3.828125 L 4.328125 -3.828125 C 4.265625 -4.191406 4.128906 -4.488281 3.921875 -4.71875 C 3.722656 -4.957031 3.394531 -5.078125 2.9375 -5.078125 C 2.320312 -5.078125 1.878906 -4.773438 1.609375 -4.171875 C 1.441406 -3.773438 1.359375 -3.289062 1.359375 -2.71875 C 1.359375 -2.132812 1.476562 -1.644531 1.71875 -1.25 C 1.96875 -0.851562 2.351562 -0.65625 2.875 -0.65625 C 3.28125 -0.65625 3.597656 -0.78125 3.828125 -1.03125 C 4.066406 -1.28125 4.234375 -1.617188 4.328125 -2.046875 L 5.265625 -2.046875 C 5.160156 -1.273438 4.890625 -0.710938 4.453125 -0.359375 C 4.023438 -0.00390625 3.472656 0.171875 2.796875 0.171875 C 2.046875 0.171875 1.441406 -0.101562 0.984375 -0.65625 C 0.535156 -1.207031 0.3125 -1.898438 0.3125 -2.734375 C 0.3125 -3.742188 0.554688 -4.53125 1.046875 -5.09375 C 1.546875 -5.65625 2.175781 -5.9375 2.9375 -5.9375 Z M 2.78125 -5.921875 Z M 2.78125 -5.921875 "/>
</symbol>
<symbol overflow="visible" id="glyph0-10">
<path style="stroke:none;" d="M 0.71875 -7.953125 L 1.6875 -7.953125 L 1.6875 -5 C 1.914062 -5.289062 2.117188 -5.492188 2.296875 -5.609375 C 2.609375 -5.816406 3 -5.921875 3.46875 -5.921875 C 4.3125 -5.921875 4.878906 -5.625 5.171875 -5.03125 C 5.335938 -4.71875 5.421875 -4.273438 5.421875 -3.703125 L 5.421875 0 L 4.421875 0 L 4.421875 -3.640625 C 4.421875 -4.066406 4.367188 -4.378906 4.265625 -4.578125 C 4.085938 -4.890625 3.753906 -5.046875 3.265625 -5.046875 C 2.867188 -5.046875 2.503906 -4.90625 2.171875 -4.625 C 1.847656 -4.351562 1.6875 -3.832031 1.6875 -3.0625 L 1.6875 0 L 0.71875 0 Z M 0.71875 -7.953125 "/>
</symbol>
<symbol overflow="visible" id="glyph0-11">
<path style="stroke:none;" d="M 0.28125 -0.765625 L 3.703125 -4.90625 L 0.53125 -4.90625 L 0.53125 -5.78125 L 5.015625 -5.78125 L 5.015625 -4.984375 L 1.609375 -0.875 L 5.109375 -0.875 L 5.109375 0 L 0.28125 0 Z M 2.78125 -5.921875 Z M 2.78125 -5.921875 "/>
</symbol>
<symbol overflow="visible" id="glyph0-12">
<path style="stroke:none;" d="M 0.875 -7.921875 L 1.953125 -7.921875 L 1.953125 -4.65625 L 6.078125 -4.65625 L 6.078125 -7.921875 L 7.15625 -7.921875 L 7.15625 0 L 6.078125 0 L 6.078125 -3.703125 L 1.953125 -3.703125 L 1.953125 0 L 0.875 0 Z M 0.875 -7.921875 "/>
</symbol>
<symbol overflow="visible" id="glyph0-13">
<path style="stroke:none;" d="M 2.984375 -7.71875 C 3.984375 -7.71875 4.707031 -7.304688 5.15625 -6.484375 C 5.5 -5.847656 5.671875 -4.976562 5.671875 -3.875 C 5.671875 -2.820312 5.515625 -1.953125 5.203125 -1.265625 C 4.753906 -0.285156 4.015625 0.203125 2.984375 0.203125 C 2.054688 0.203125 1.363281 -0.195312 0.90625 -1 C 0.53125 -1.664062 0.34375 -2.566406 0.34375 -3.703125 C 0.34375 -4.578125 0.457031 -5.332031 0.6875 -5.96875 C 1.113281 -7.132812 1.878906 -7.71875 2.984375 -7.71875 Z M 2.984375 -0.671875 C 3.484375 -0.671875 3.878906 -0.894531 4.171875 -1.34375 C 4.472656 -1.789062 4.625 -2.617188 4.625 -3.828125 C 4.625 -4.710938 4.515625 -5.4375 4.296875 -6 C 4.085938 -6.5625 3.671875 -6.84375 3.046875 -6.84375 C 2.472656 -6.84375 2.050781 -6.570312 1.78125 -6.03125 C 1.519531 -5.5 1.390625 -4.710938 1.390625 -3.671875 C 1.390625 -2.878906 1.476562 -2.242188 1.65625 -1.765625 C 1.90625 -1.035156 2.347656 -0.671875 2.984375 -0.671875 Z M 2.984375 -0.671875 "/>
</symbol>
<symbol overflow="visible" id="glyph1-0">
<path style="stroke:none;" d="M 0.390625 0 L 0.390625 -8.609375 L 7.21875 -8.609375 L 7.21875 0 Z M 6.140625 -1.078125 L 6.140625 -7.53125 L 1.46875 -7.53125 L 1.46875 -1.078125 Z M 6.140625 -1.078125 "/>
</symbol>
<symbol overflow="visible" id="glyph1-1">
<path style="stroke:none;" d="M 1.15625 -5.9375 L 1.15625 -6.75 C 1.914062 -6.820312 2.441406 -6.945312 2.734375 -7.125 C 3.035156 -7.300781 3.265625 -7.710938 3.421875 -8.359375 L 4.25 -8.359375 L 4.25 0 L 3.125 0 L 3.125 -5.9375 Z M 1.15625 -5.9375 "/>
</symbol>
<symbol overflow="visible" id="glyph1-2">
<path style="stroke:none;" d="M 3.25 -8.390625 C 4.332031 -8.390625 5.117188 -7.941406 5.609375 -7.046875 C 5.984375 -6.359375 6.171875 -5.410156 6.171875 -4.203125 C 6.171875 -3.066406 6 -2.125 5.65625 -1.375 C 5.164062 -0.300781 4.359375 0.234375 3.234375 0.234375 C 2.234375 0.234375 1.484375 -0.203125 0.984375 -1.078125 C 0.578125 -1.816406 0.375 -2.800781 0.375 -4.03125 C 0.375 -4.976562 0.5 -5.796875 0.75 -6.484375 C 1.207031 -7.753906 2.039062 -8.390625 3.25 -8.390625 Z M 3.234375 -0.734375 C 3.785156 -0.734375 4.222656 -0.972656 4.546875 -1.453125 C 4.867188 -1.941406 5.03125 -2.847656 5.03125 -4.171875 C 5.03125 -5.117188 4.910156 -5.898438 4.671875 -6.515625 C 4.441406 -7.128906 3.988281 -7.4375 3.3125 -7.4375 C 2.6875 -7.4375 2.226562 -7.144531 1.9375 -6.5625 C 1.65625 -5.976562 1.515625 -5.117188 1.515625 -3.984375 C 1.515625 -3.128906 1.609375 -2.441406 1.796875 -1.921875 C 2.078125 -1.128906 2.554688 -0.734375 3.234375 -0.734375 Z M 3.234375 -0.734375 "/>
</symbol>
<symbol overflow="visible" id="glyph1-3">
<path style="stroke:none;" d="M 0.375 0 C 0.414062 -0.71875 0.566406 -1.34375 0.828125 -1.875 C 1.085938 -2.414062 1.59375 -2.90625 2.34375 -3.34375 L 3.46875 -4 C 3.96875 -4.289062 4.320312 -4.539062 4.53125 -4.75 C 4.851562 -5.070312 5.015625 -5.441406 5.015625 -5.859375 C 5.015625 -6.347656 4.863281 -6.734375 4.5625 -7.015625 C 4.269531 -7.304688 3.882812 -7.453125 3.40625 -7.453125 C 2.675781 -7.453125 2.175781 -7.179688 1.90625 -6.640625 C 1.75 -6.335938 1.664062 -5.929688 1.65625 -5.421875 L 0.578125 -5.421875 C 0.585938 -6.148438 0.722656 -6.742188 0.984375 -7.203125 C 1.441406 -8.015625 2.25 -8.421875 3.40625 -8.421875 C 4.363281 -8.421875 5.0625 -8.160156 5.5 -7.640625 C 5.945312 -7.117188 6.171875 -6.539062 6.171875 -5.90625 C 6.171875 -5.238281 5.9375 -4.664062 5.46875 -4.1875 C 5.195312 -3.90625 4.707031 -3.566406 4 -3.171875 L 3.1875 -2.734375 C 2.8125 -2.523438 2.515625 -2.320312 2.296875 -2.125 C 1.898438 -1.789062 1.648438 -1.414062 1.546875 -1 L 6.140625 -1 L 6.140625 0 Z M 0.375 0 "/>
</symbol>
<symbol overflow="visible" id="glyph1-4">
<path style="stroke:none;" d="M 3.125 0.234375 C 2.125 0.234375 1.398438 -0.0351562 0.953125 -0.578125 C 0.503906 -1.128906 0.28125 -1.796875 0.28125 -2.578125 L 1.390625 -2.578125 C 1.429688 -2.035156 1.53125 -1.640625 1.6875 -1.390625 C 1.96875 -0.953125 2.460938 -0.734375 3.171875 -0.734375 C 3.734375 -0.734375 4.179688 -0.878906 4.515625 -1.171875 C 4.847656 -1.472656 5.015625 -1.859375 5.015625 -2.328125 C 5.015625 -2.898438 4.835938 -3.300781 4.484375 -3.53125 C 4.128906 -3.769531 3.640625 -3.890625 3.015625 -3.890625 C 2.941406 -3.890625 2.867188 -3.882812 2.796875 -3.875 C 2.722656 -3.875 2.648438 -3.875 2.578125 -3.875 L 2.578125 -4.8125 C 2.691406 -4.789062 2.785156 -4.78125 2.859375 -4.78125 C 2.929688 -4.78125 3.007812 -4.78125 3.09375 -4.78125 C 3.488281 -4.78125 3.8125 -4.84375 4.0625 -4.96875 C 4.507812 -5.1875 4.734375 -5.578125 4.734375 -6.140625 C 4.734375 -6.554688 4.582031 -6.875 4.28125 -7.09375 C 3.988281 -7.320312 3.644531 -7.4375 3.25 -7.4375 C 2.550781 -7.4375 2.066406 -7.203125 1.796875 -6.734375 C 1.648438 -6.484375 1.566406 -6.117188 1.546875 -5.640625 L 0.5 -5.640625 C 0.5 -6.265625 0.625 -6.796875 0.875 -7.234375 C 1.300781 -8.015625 2.054688 -8.40625 3.140625 -8.40625 C 3.992188 -8.40625 4.65625 -8.210938 5.125 -7.828125 C 5.59375 -7.453125 5.828125 -6.898438 5.828125 -6.171875 C 5.828125 -5.660156 5.691406 -5.242188 5.421875 -4.921875 C 5.242188 -4.722656 5.019531 -4.566406 4.75 -4.453125 C 5.1875 -4.328125 5.53125 -4.09375 5.78125 -3.75 C 6.03125 -3.40625 6.15625 -2.984375 6.15625 -2.484375 C 6.15625 -1.679688 5.890625 -1.023438 5.359375 -0.515625 C 4.835938 -0.015625 4.09375 0.234375 3.125 0.234375 Z M 3.125 0.234375 "/>
</symbol>
<symbol overflow="visible" id="glyph1-5">
<path style="stroke:none;" d="M 3.96875 -2.96875 L 3.96875 -6.78125 L 1.28125 -2.96875 Z M 3.984375 0 L 3.984375 -2.046875 L 0.3125 -2.046875 L 0.3125 -3.078125 L 4.15625 -8.421875 L 5.046875 -8.421875 L 5.046875 -2.96875 L 6.28125 -2.96875 L 6.28125 -2.046875 L 5.046875 -2.046875 L 5.046875 0 Z M 3.984375 0 "/>
</symbol>
<symbol overflow="visible" id="glyph1-6">
<path style="stroke:none;" d="M 1.484375 -2.140625 C 1.554688 -1.535156 1.835938 -1.117188 2.328125 -0.890625 C 2.578125 -0.773438 2.863281 -0.71875 3.1875 -0.71875 C 3.8125 -0.71875 4.273438 -0.914062 4.578125 -1.3125 C 4.878906 -1.707031 5.03125 -2.148438 5.03125 -2.640625 C 5.03125 -3.222656 4.847656 -3.675781 4.484375 -4 C 4.128906 -4.320312 3.703125 -4.484375 3.203125 -4.484375 C 2.835938 -4.484375 2.523438 -4.410156 2.265625 -4.265625 C 2.003906 -4.128906 1.785156 -3.9375 1.609375 -3.6875 L 0.6875 -3.734375 L 1.328125 -8.25 L 5.6875 -8.25 L 5.6875 -7.234375 L 2.125 -7.234375 L 1.765625 -4.90625 C 1.960938 -5.050781 2.148438 -5.160156 2.328125 -5.234375 C 2.640625 -5.359375 3 -5.421875 3.40625 -5.421875 C 4.175781 -5.421875 4.828125 -5.171875 5.359375 -4.671875 C 5.898438 -4.179688 6.171875 -3.554688 6.171875 -2.796875 C 6.171875 -2.003906 5.921875 -1.300781 5.421875 -0.6875 C 4.929688 -0.0820312 4.148438 0.21875 3.078125 0.21875 C 2.398438 0.21875 1.796875 0.0234375 1.265625 -0.359375 C 0.742188 -0.742188 0.453125 -1.335938 0.390625 -2.140625 Z M 1.484375 -2.140625 "/>
</symbol>
</g>
</defs>
<g id="surface4">
<rect x="0" y="0" width="756" height="216" style="fill:rgb(100%,100%,100%);fill-opacity:1;stroke:none;"/>
<path style="fill:none;stroke-width:1.066978;stroke-linecap:butt;stroke-linejoin:round;stroke:rgb(0%,0%,0%);stroke-opacity:1;stroke-miterlimit:10;" d="M 41.960938 184.96875 L 43.460938 184.957031 L 44.960938 184.941406 L 46.457031 184.925781 L 47.957031 184.90625 L 50.957031 184.859375 L 53.957031 184.796875 L 55.457031 184.761719 L 56.957031 184.722656 L 59.957031 184.628906 L 61.453125 184.574219 L 62.953125 184.511719 L 64.453125 184.445312 L 65.953125 184.371094 L 67.453125 184.289062 L 68.953125 184.199219 L 70.453125 184.101562 L 71.953125 183.992188 L 73.453125 183.875 L 74.953125 183.746094 L 76.449219 183.609375 L 77.949219 183.460938 L 79.449219 183.296875 L 80.949219 183.125 L 82.449219 182.933594 L 83.949219 182.730469 L 85.449219 182.515625 L 86.949219 182.28125 L 88.449219 182.03125 L 89.949219 181.765625 L 91.445312 181.480469 L 92.945312 181.179688 L 94.445312 180.855469 L 95.945312 180.511719 L 97.445312 180.152344 L 98.945312 179.765625 L 100.445312 179.359375 L 101.945312 178.929688 L 103.445312 178.476562 L 104.941406 178 L 106.441406 177.496094 L 107.941406 176.96875 L 109.441406 176.414062 L 110.941406 175.835938 L 112.441406 175.226562 L 113.941406 174.589844 L 115.441406 173.925781 L 116.941406 173.230469 L 118.441406 172.507812 L 119.9375 171.753906 L 121.4375 170.972656 L 122.9375 170.15625 L 124.4375 169.3125 L 125.9375 168.433594 L 127.4375 167.527344 L 128.9375 166.585938 L 130.4375 165.613281 L 131.9375 164.605469 L 133.4375 163.570312 L 134.933594 162.5 L 136.433594 161.394531 L 137.933594 160.257812 L 139.433594 159.089844 L 140.933594 157.890625 L 142.433594 156.65625 L 143.933594 155.390625 L 145.433594 154.09375 L 146.933594 152.765625 L 148.433594 151.40625 L 149.929688 150.015625 L 151.429688 148.59375 L 152.929688 147.140625 L 154.429688 145.660156 L 155.929688 144.148438 L 157.429688 142.609375 L 158.929688 141.039062 L 160.429688 139.445312 L 161.929688 137.824219 L 163.425781 136.175781 L 164.925781 134.503906 L 166.425781 132.808594 L 167.925781 131.089844 L 169.425781 129.347656 L 170.925781 127.582031 L 172.425781 125.796875 L 173.925781 123.996094 L 175.425781 122.171875 L 176.925781 120.332031 L 178.421875 118.472656 L 179.921875 116.601562 L 181.421875 114.714844 L 182.921875 112.816406 L 184.421875 110.902344 L 185.921875 108.980469 L 187.421875 107.050781 L 188.921875 105.109375 L 190.421875 103.160156 L 191.921875 101.207031 L 193.417969 99.25 L 194.917969 97.289062 L 199.417969 91.394531 L 202.417969 87.472656 L 203.917969 85.519531 L 205.417969 83.570312 L 206.914062 81.625 L 208.414062 79.691406 L 209.914062 77.765625 L 211.414062 75.851562 L 212.914062 73.949219 L 214.414062 72.058594 L 215.914062 70.183594 L 217.414062 68.324219 L 218.914062 66.480469 L 220.414062 64.652344 L 221.910156 62.847656 L 223.410156 61.058594 L 224.910156 59.292969 L 226.410156 57.550781 L 227.910156 55.832031 L 229.410156 54.136719 L 230.910156 52.464844 L 232.410156 50.820312 L 233.910156 49.203125 L 235.410156 47.617188 L 236.90625 46.058594 L 238.40625 44.527344 L 239.90625 43.03125 L 241.40625 41.5625 L 242.90625 40.128906 L 244.40625 38.730469 L 245.90625 37.363281 L 247.40625 36.03125 L 248.90625 34.734375 L 250.40625 33.472656 L 251.902344 32.246094 L 253.402344 31.058594 L 254.902344 29.910156 L 256.402344 28.796875 L 257.902344 27.722656 L 259.402344 26.6875 L 260.902344 25.695312 L 262.402344 24.738281 L 263.902344 23.820312 L 265.398438 22.945312 L 266.898438 22.113281 L 268.398438 21.316406 L 269.898438 20.5625 L 271.398438 19.851562 L 272.898438 19.179688 L 274.398438 18.550781 L 275.898438 17.960938 L 277.398438 17.414062 L 278.898438 16.910156 L 280.394531 16.445312 L 281.894531 16.023438 L 283.394531 15.640625 L 284.894531 15.300781 L 286.394531 15 L 287.894531 14.742188 L 289.394531 14.523438 L 290.894531 14.34375 L 292.394531 14.207031 L 293.894531 14.109375 L 295.390625 14.050781 L 296.890625 14.03125 L 298.390625 14.050781 L 299.890625 14.105469 L 301.390625 14.203125 L 302.890625 14.335938 L 304.390625 14.507812 L 305.890625 14.714844 L 307.390625 14.960938 L 308.890625 15.238281 L 310.386719 15.554688 L 311.886719 15.90625 L 313.386719 16.289062 L 314.886719 16.710938 L 316.386719 17.160156 L 317.886719 17.644531 L 319.386719 18.164062 L 320.886719 18.710938 L 322.386719 19.289062 L 323.882812 19.898438 L 325.382812 20.539062 L 326.882812 21.207031 L 328.382812 21.902344 L 329.882812 22.628906 L 331.382812 23.378906 L 332.882812 24.15625 L 334.382812 24.960938 L 335.882812 25.792969 L 337.382812 26.644531 L 338.878906 27.523438 L 340.378906 28.421875 L 341.878906 29.347656 L 343.378906 30.292969 L 344.878906 31.257812 L 346.378906 32.242188 L 347.878906 33.25 L 349.378906 34.273438 L 350.878906 35.320312 L 352.378906 36.378906 L 353.875 37.460938 L 355.375 38.554688 L 356.875 39.664062 L 358.375 40.789062 L 359.875 41.929688 L 361.375 43.085938 L 362.875 44.25 L 364.375 45.429688 L 365.875 46.621094 L 367.375 47.824219 L 368.871094 49.035156 L 370.371094 50.257812 L 371.871094 51.492188 L 373.371094 52.734375 L 374.871094 53.980469 L 376.371094 55.238281 L 377.871094 56.5 L 379.371094 57.769531 L 380.871094 59.046875 L 382.367188 60.328125 L 383.867188 61.613281 L 385.367188 62.902344 L 386.867188 64.195312 L 389.867188 66.789062 L 391.367188 68.089844 L 392.867188 69.394531 L 394.367188 70.695312 L 395.867188 72 L 397.363281 73.304688 L 400.363281 75.914062 L 403.363281 78.515625 L 406.363281 81.109375 L 407.863281 82.402344 L 410.863281 84.980469 L 412.359375 86.261719 L 413.859375 87.539062 L 415.359375 88.8125 L 416.859375 90.082031 L 418.359375 91.34375 L 419.859375 92.601562 L 421.359375 93.855469 L 422.859375 95.101562 L 424.359375 96.339844 L 425.859375 97.574219 L 427.355469 98.796875 L 428.855469 100.015625 L 430.355469 101.226562 L 431.855469 102.429688 L 433.355469 103.625 L 434.855469 104.8125 L 436.355469 105.992188 L 437.855469 107.160156 L 439.355469 108.324219 L 440.851562 109.476562 L 442.351562 110.617188 L 443.851562 111.753906 L 445.351562 112.875 L 446.851562 113.992188 L 448.351562 115.097656 L 449.851562 116.191406 L 451.351562 117.277344 L 452.851562 118.351562 L 454.351562 119.417969 L 455.847656 120.472656 L 457.347656 121.515625 L 458.847656 122.550781 L 460.347656 123.574219 L 461.847656 124.585938 L 463.347656 125.589844 L 464.847656 126.582031 L 466.347656 127.5625 L 467.847656 128.53125 L 469.347656 129.492188 L 470.84375 130.4375 L 472.34375 131.375 L 473.84375 132.300781 L 475.34375 133.214844 L 476.84375 134.121094 L 478.34375 135.015625 L 479.84375 135.894531 L 481.34375 136.765625 L 482.84375 137.625 L 484.339844 138.476562 L 485.839844 139.3125 L 487.339844 140.140625 L 488.839844 140.957031 L 490.339844 141.761719 L 491.839844 142.558594 L 493.339844 143.339844 L 494.839844 144.113281 L 496.339844 144.875 L 497.839844 145.625 L 499.335938 146.367188 L 500.835938 147.097656 L 502.335938 147.816406 L 503.835938 148.523438 L 505.335938 149.222656 L 506.835938 149.910156 L 508.335938 150.589844 L 509.835938 151.257812 L 511.335938 151.914062 L 512.835938 152.5625 L 514.332031 153.199219 L 515.832031 153.828125 L 517.332031 154.445312 L 518.832031 155.054688 L 520.332031 155.652344 L 521.832031 156.238281 L 523.332031 156.820312 L 524.832031 157.386719 L 526.332031 157.949219 L 527.832031 158.5 L 529.328125 159.042969 L 530.828125 159.574219 L 532.328125 160.097656 L 533.828125 160.613281 L 535.328125 161.117188 L 536.828125 161.617188 L 538.328125 162.105469 L 539.828125 162.585938 L 541.328125 163.058594 L 542.824219 163.519531 L 544.324219 163.976562 L 545.824219 164.421875 L 547.324219 164.863281 L 548.824219 165.292969 L 550.324219 165.71875 L 551.824219 166.132812 L 553.324219 166.542969 L 554.824219 166.941406 L 556.324219 167.335938 L 557.820312 167.722656 L 559.320312 168.101562 L 560.820312 168.472656 L 562.320312 168.835938 L 563.820312 169.195312 L 565.320312 169.546875 L 566.820312 169.890625 L 568.320312 170.226562 L 569.820312 170.558594 L 571.320312 170.882812 L 572.816406 171.203125 L 575.816406 171.820312 L 578.816406 172.414062 L 581.816406 172.984375 L 584.816406 173.53125 L 586.316406 173.796875 L 587.8125 174.054688 L 589.3125 174.308594 L 590.8125 174.558594 L 592.3125 174.804688 L 593.8125 175.042969 L 595.3125 175.277344 L 596.8125 175.507812 L 599.8125 175.953125 L 601.308594 176.167969 L 602.808594 176.378906 L 605.808594 176.785156 L 607.308594 176.984375 L 608.808594 177.175781 L 611.808594 177.550781 L 613.308594 177.730469 L 614.808594 177.90625 L 616.304688 178.082031 L 617.804688 178.25 L 620.804688 178.578125 L 623.804688 178.890625 L 625.304688 179.042969 L 629.804688 179.476562 L 631.300781 179.613281 L 632.800781 179.75 L 637.300781 180.136719 L 640.300781 180.378906 L 641.800781 180.496094 L 644.800781 180.722656 L 646.296875 180.832031 L 649.296875 181.042969 L 652.296875 181.246094 L 653.796875 181.34375 L 656.796875 181.53125 L 658.296875 181.621094 L 659.792969 181.707031 L 662.792969 181.878906 L 664.292969 181.960938 L 668.792969 182.195312 L 671.792969 182.34375 L 673.292969 182.414062 L 674.789062 182.480469 L 676.289062 182.550781 L 677.789062 182.617188 L 682.289062 182.804688 L 685.289062 182.921875 L 688.289062 183.03125 L 689.785156 183.085938 L 695.785156 183.289062 L 698.785156 183.382812 L 701.785156 183.46875 L 703.28125 183.511719 L 704.78125 183.554688 L 710.78125 183.710938 L 716.78125 183.851562 "/>
<path style="fill:none;stroke-width:1.066978;stroke-linecap:butt;stroke-linejoin:round;stroke:rgb(100%,75.294118%,79.607843%);stroke-opacity:1;stroke-miterlimit:10;" d="M 514.332031 185.039062 L 514.332031 153.199219 "/>
<path style="fill:none;stroke-width:1.066978;stroke-linecap:butt;stroke-linejoin:round;stroke:rgb(100%,75.294118%,79.607843%);stroke-opacity:1;stroke-miterlimit:10;" d="M 515.832031 185.039062 L 515.832031 153.828125 "/>
<path style="fill:none;stroke-width:1.066978;stroke-linecap:butt;stroke-linejoin:round;stroke:rgb(100%,75.294118%,79.607843%);stroke-opacity:1;stroke-miterlimit:10;" d="M 517.332031 185.039062 L 517.332031 154.445312 "/>
<path style="fill:none;stroke-width:1.066978;stroke-linecap:butt;stroke-linejoin:round;stroke:rgb(100%,75.294118%,79.607843%);stroke-opacity:1;stroke-miterlimit:10;" d="M 518.832031 185.039062 L 518.832031 155.054688 "/>
<path style="fill:none;stroke-width:1.066978;stroke-linecap:butt;stroke-linejoin:round;stroke:rgb(100%,75.294118%,79.607843%);stroke-opacity:1;stroke-miterlimit:10;" d="M 520.332031 185.039062 L 520.332031 155.652344 "/>
<path style="fill:none;stroke-width:1.066978;stroke-linecap:butt;stroke-linejoin:round;stroke:rgb(100%,75.294118%,79.607843%);stroke-opacity:1;stroke-miterlimit:10;" d="M 521.832031 185.039062 L 521.832031 156.238281 "/>
<path style="fill:none;stroke-width:1.066978;stroke-linecap:butt;stroke-linejoin:round;stroke:rgb(100%,75.294118%,79.607843%);stroke-opacity:1;stroke-miterlimit:10;" d="M 523.332031 185.039062 L 523.332031 156.820312 "/>
<path style="fill:none;stroke-width:1.066978;stroke-linecap:butt;stroke-linejoin:round;stroke:rgb(100%,75.294118%,79.607843%);stroke-opacity:1;stroke-miterlimit:10;" d="M 524.832031 185.039062 L 524.832031 157.386719 "/>
<path style="fill:none;stroke-width:1.066978;stroke-linecap:butt;stroke-linejoin:round;stroke:rgb(100%,75.294118%,79.607843%);stroke-opacity:1;stroke-miterlimit:10;" d="M 526.332031 185.039062 L 526.332031 157.949219 "/>
<path style="fill:none;stroke-width:1.066978;stroke-linecap:butt;stroke-linejoin:round;stroke:rgb(100%,75.294118%,79.607843%);stroke-opacity:1;stroke-miterlimit:10;" d="M 527.832031 185.039062 L 527.832031 158.5 "/>
<path style="fill:none;stroke-width:1.066978;stroke-linecap:butt;stroke-linejoin:round;stroke:rgb(100%,75.294118%,79.607843%);stroke-opacity:1;stroke-miterlimit:10;" d="M 529.328125 185.039062 L 529.328125 159.042969 "/>
<path style="fill:none;stroke-width:1.066978;stroke-linecap:butt;stroke-linejoin:round;stroke:rgb(100%,75.294118%,79.607843%);stroke-opacity:1;stroke-miterlimit:10;" d="M 530.828125 185.039062 L 530.828125 159.574219 "/>
<path style="fill:none;stroke-width:1.066978;stroke-linecap:butt;stroke-linejoin:round;stroke:rgb(100%,75.294118%,79.607843%);stroke-opacity:1;stroke-miterlimit:10;" d="M 532.328125 185.039062 L 532.328125 160.097656 "/>
<path style="fill:none;stroke-width:1.066978;stroke-linecap:butt;stroke-linejoin:round;stroke:rgb(100%,75.294118%,79.607843%);stroke-opacity:1;stroke-miterlimit:10;" d="M 533.828125 185.039062 L 533.828125 160.613281 "/>
<path style="fill:none;stroke-width:1.066978;stroke-linecap:butt;stroke-linejoin:round;stroke:rgb(100%,75.294118%,79.607843%);stroke-opacity:1;stroke-miterlimit:10;" d="M 535.328125 185.039062 L 535.328125 161.117188 "/>
<path style="fill:none;stroke-width:1.066978;stroke-linecap:butt;stroke-linejoin:round;stroke:rgb(100%,75.294118%,79.607843%);stroke-opacity:1;stroke-miterlimit:10;" d="M 536.828125 185.039062 L 536.828125 161.617188 "/>
<path style="fill:none;stroke-width:1.066978;stroke-linecap:butt;stroke-linejoin:round;stroke:rgb(100%,75.294118%,79.607843%);stroke-opacity:1;stroke-miterlimit:10;" d="M 538.328125 185.039062 L 538.328125 162.105469 "/>
<path style="fill:none;stroke-width:1.066978;stroke-linecap:butt;stroke-linejoin:round;stroke:rgb(100%,75.294118%,79.607843%);stroke-opacity:1;stroke-miterlimit:10;" d="M 539.828125 185.039062 L 539.828125 162.585938 "/>
<path style="fill:none;stroke-width:1.066978;stroke-linecap:butt;stroke-linejoin:round;stroke:rgb(100%,75.294118%,79.607843%);stroke-opacity:1;stroke-miterlimit:10;" d="M 541.328125 185.039062 L 541.328125 163.058594 "/>
<path style="fill:none;stroke-width:1.066978;stroke-linecap:butt;stroke-linejoin:round;stroke:rgb(100%,75.294118%,79.607843%);stroke-opacity:1;stroke-miterlimit:10;" d="M 542.824219 185.039062 L 542.824219 163.519531 "/>
<path style="fill:none;stroke-width:1.066978;stroke-linecap:butt;stroke-linejoin:round;stroke:rgb(100%,75.294118%,79.607843%);stroke-opacity:1;stroke-miterlimit:10;" d="M 544.324219 185.039062 L 544.324219 163.976562 "/>
<path style="fill:none;stroke-width:1.066978;stroke-linecap:butt;stroke-linejoin:round;stroke:rgb(100%,75.294118%,79.607843%);stroke-opacity:1;stroke-miterlimit:10;" d="M 545.824219 185.039062 L 545.824219 164.421875 "/>
<path style="fill:none;stroke-width:1.066978;stroke-linecap:butt;stroke-linejoin:round;stroke:rgb(100%,75.294118%,79.607843%);stroke-opacity:1;stroke-miterlimit:10;" d="M 547.324219 185.039062 L 547.324219 164.863281 "/>
<path style="fill:none;stroke-width:1.066978;stroke-linecap:butt;stroke-linejoin:round;stroke:rgb(100%,75.294118%,79.607843%);stroke-opacity:1;stroke-miterlimit:10;" d="M 548.824219 185.039062 L 548.824219 165.292969 "/>
<path style="fill:none;stroke-width:1.066978;stroke-linecap:butt;stroke-linejoin:round;stroke:rgb(100%,75.294118%,79.607843%);stroke-opacity:1;stroke-miterlimit:10;" d="M 550.324219 185.039062 L 550.324219 165.71875 "/>
<path style="fill:none;stroke-width:1.066978;stroke-linecap:butt;stroke-linejoin:round;stroke:rgb(100%,75.294118%,79.607843%);stroke-opacity:1;stroke-miterlimit:10;" d="M 551.824219 185.039062 L 551.824219 166.132812 "/>
<path style="fill:none;stroke-width:1.066978;stroke-linecap:butt;stroke-linejoin:round;stroke:rgb(100%,75.294118%,79.607843%);stroke-opacity:1;stroke-miterlimit:10;" d="M 553.324219 185.039062 L 553.324219 166.542969 "/>
<path style="fill:none;stroke-width:1.066978;stroke-linecap:butt;stroke-linejoin:round;stroke:rgb(100%,75.294118%,79.607843%);stroke-opacity:1;stroke-miterlimit:10;" d="M 554.824219 185.039062 L 554.824219 166.941406 "/>
<path style="fill:none;stroke-width:1.066978;stroke-linecap:butt;stroke-linejoin:round;stroke:rgb(100%,75.294118%,79.607843%);stroke-opacity:1;stroke-miterlimit:10;" d="M 556.324219 185.039062 L 556.324219 167.335938 "/>
<path style="fill:none;stroke-width:1.066978;stroke-linecap:butt;stroke-linejoin:round;stroke:rgb(100%,75.294118%,79.607843%);stroke-opacity:1;stroke-miterlimit:10;" d="M 557.820312 185.039062 L 557.820312 167.722656 "/>
<path style="fill:none;stroke-width:1.066978;stroke-linecap:butt;stroke-linejoin:round;stroke:rgb(100%,75.294118%,79.607843%);stroke-opacity:1;stroke-miterlimit:10;" d="M 559.320312 185.039062 L 559.320312 168.101562 "/>
<path style="fill:none;stroke-width:1.066978;stroke-linecap:butt;stroke-linejoin:round;stroke:rgb(100%,75.294118%,79.607843%);stroke-opacity:1;stroke-miterlimit:10;" d="M 560.820312 185.039062 L 560.820312 168.472656 "/>
<path style="fill:none;stroke-width:1.066978;stroke-linecap:butt;stroke-linejoin:round;stroke:rgb(100%,75.294118%,79.607843%);stroke-opacity:1;stroke-miterlimit:10;" d="M 562.320312 185.039062 L 562.320312 168.835938 "/>
<path style="fill:none;stroke-width:1.066978;stroke-linecap:butt;stroke-linejoin:round;stroke:rgb(100%,75.294118%,79.607843%);stroke-opacity:1;stroke-miterlimit:10;" d="M 563.820312 185.039062 L 563.820312 169.195312 "/>
<path style="fill:none;stroke-width:1.066978;stroke-linecap:butt;stroke-linejoin:round;stroke:rgb(100%,75.294118%,79.607843%);stroke-opacity:1;stroke-miterlimit:10;" d="M 565.320312 185.039062 L 565.320312 169.546875 "/>
<path style="fill:none;stroke-width:1.066978;stroke-linecap:butt;stroke-linejoin:round;stroke:rgb(100%,75.294118%,79.607843%);stroke-opacity:1;stroke-miterlimit:10;" d="M 566.820312 185.039062 L 566.820312 169.890625 "/>
<path style="fill:none;stroke-width:1.066978;stroke-linecap:butt;stroke-linejoin:round;stroke:rgb(100%,75.294118%,79.607843%);stroke-opacity:1;stroke-miterlimit:10;" d="M 568.320312 185.039062 L 568.320312 170.226562 "/>
<path style="fill:none;stroke-width:1.066978;stroke-linecap:butt;stroke-linejoin:round;stroke:rgb(100%,75.294118%,79.607843%);stroke-opacity:1;stroke-miterlimit:10;" d="M 569.820312 185.039062 L 569.820312 170.558594 "/>
<path style="fill:none;stroke-width:1.066978;stroke-linecap:butt;stroke-linejoin:round;stroke:rgb(100%,75.294118%,79.607843%);stroke-opacity:1;stroke-miterlimit:10;" d="M 571.320312 185.039062 L 571.320312 170.882812 "/>
<path style="fill:none;stroke-width:1.066978;stroke-linecap:butt;stroke-linejoin:round;stroke:rgb(100%,75.294118%,79.607843%);stroke-opacity:1;stroke-miterlimit:10;" d="M 572.816406 185.039062 L 572.816406 171.203125 "/>
<path style="fill:none;stroke-width:1.066978;stroke-linecap:butt;stroke-linejoin:round;stroke:rgb(100%,75.294118%,79.607843%);stroke-opacity:1;stroke-miterlimit:10;" d="M 574.316406 185.039062 L 574.316406 171.511719 "/>
<path style="fill:none;stroke-width:1.066978;stroke-linecap:butt;stroke-linejoin:round;stroke:rgb(100%,75.294118%,79.607843%);stroke-opacity:1;stroke-miterlimit:10;" d="M 575.816406 185.039062 L 575.816406 171.820312 "/>
<path style="fill:none;stroke-width:1.066978;stroke-linecap:butt;stroke-linejoin:round;stroke:rgb(100%,75.294118%,79.607843%);stroke-opacity:1;stroke-miterlimit:10;" d="M 577.316406 185.039062 L 577.316406 172.117188 "/>
<path style="fill:none;stroke-width:1.066978;stroke-linecap:butt;stroke-linejoin:round;stroke:rgb(100%,75.294118%,79.607843%);stroke-opacity:1;stroke-miterlimit:10;" d="M 578.816406 185.039062 L 578.816406 172.414062 "/>
<path style="fill:none;stroke-width:1.066978;stroke-linecap:butt;stroke-linejoin:round;stroke:rgb(100%,75.294118%,79.607843%);stroke-opacity:1;stroke-miterlimit:10;" d="M 580.316406 185.039062 L 580.316406 172.699219 "/>
<path style="fill:none;stroke-width:1.066978;stroke-linecap:butt;stroke-linejoin:round;stroke:rgb(100%,75.294118%,79.607843%);stroke-opacity:1;stroke-miterlimit:10;" d="M 581.816406 185.039062 L 581.816406 172.984375 "/>
<path style="fill:none;stroke-width:1.066978;stroke-linecap:butt;stroke-linejoin:round;stroke:rgb(100%,75.294118%,79.607843%);stroke-opacity:1;stroke-miterlimit:10;" d="M 583.316406 185.039062 L 583.316406 173.257812 "/>
<path style="fill:none;stroke-width:1.066978;stroke-linecap:butt;stroke-linejoin:round;stroke:rgb(100%,75.294118%,79.607843%);stroke-opacity:1;stroke-miterlimit:10;" d="M 584.816406 185.039062 L 584.816406 173.53125 "/>
<path style="fill:none;stroke-width:1.066978;stroke-linecap:butt;stroke-linejoin:round;stroke:rgb(100%,75.294118%,79.607843%);stroke-opacity:1;stroke-miterlimit:10;" d="M 586.316406 185.039062 L 586.316406 173.796875 "/>
<path style="fill:none;stroke-width:1.066978;stroke-linecap:butt;stroke-linejoin:round;stroke:rgb(100%,75.294118%,79.607843%);stroke-opacity:1;stroke-miterlimit:10;" d="M 587.8125 185.039062 L 587.8125 174.054688 "/>
<path style="fill:none;stroke-width:1.066978;stroke-linecap:butt;stroke-linejoin:round;stroke:rgb(100%,75.294118%,79.607843%);stroke-opacity:1;stroke-miterlimit:10;" d="M 589.3125 185.039062 L 589.3125 174.308594 "/>
<path style="fill:none;stroke-width:1.066978;stroke-linecap:butt;stroke-linejoin:round;stroke:rgb(100%,75.294118%,79.607843%);stroke-opacity:1;stroke-miterlimit:10;" d="M 590.8125 185.039062 L 590.8125 174.558594 "/>
<path style="fill:none;stroke-width:1.066978;stroke-linecap:butt;stroke-linejoin:round;stroke:rgb(100%,75.294118%,79.607843%);stroke-opacity:1;stroke-miterlimit:10;" d="M 592.3125 185.039062 L 592.3125 174.804688 "/>
<path style="fill:none;stroke-width:1.066978;stroke-linecap:butt;stroke-linejoin:round;stroke:rgb(100%,75.294118%,79.607843%);stroke-opacity:1;stroke-miterlimit:10;" d="M 593.8125 185.039062 L 593.8125 175.042969 "/>
<path style="fill:none;stroke-width:1.066978;stroke-linecap:butt;stroke-linejoin:round;stroke:rgb(100%,75.294118%,79.607843%);stroke-opacity:1;stroke-miterlimit:10;" d="M 595.3125 185.039062 L 595.3125 175.277344 "/>
<path style="fill:none;stroke-width:1.066978;stroke-linecap:butt;stroke-linejoin:round;stroke:rgb(100%,75.294118%,79.607843%);stroke-opacity:1;stroke-miterlimit:10;" d="M 596.8125 185.039062 L 596.8125 175.507812 "/>
<path style="fill:none;stroke-width:1.066978;stroke-linecap:butt;stroke-linejoin:round;stroke:rgb(100%,75.294118%,79.607843%);stroke-opacity:1;stroke-miterlimit:10;" d="M 598.3125 185.039062 L 598.3125 175.730469 "/>
<path style="fill:none;stroke-width:1.066978;stroke-linecap:butt;stroke-linejoin:round;stroke:rgb(100%,75.294118%,79.607843%);stroke-opacity:1;stroke-miterlimit:10;" d="M 599.8125 185.039062 L 599.8125 175.953125 "/>
<path style="fill:none;stroke-width:1.066978;stroke-linecap:butt;stroke-linejoin:round;stroke:rgb(100%,75.294118%,79.607843%);stroke-opacity:1;stroke-miterlimit:10;" d="M 601.308594 185.039062 L 601.308594 176.167969 "/>
<path style="fill:none;stroke-width:1.066978;stroke-linecap:butt;stroke-linejoin:round;stroke:rgb(100%,75.294118%,79.607843%);stroke-opacity:1;stroke-miterlimit:10;" d="M 602.808594 185.039062 L 602.808594 176.378906 "/>
<path style="fill:none;stroke-width:1.066978;stroke-linecap:butt;stroke-linejoin:round;stroke:rgb(100%,75.294118%,79.607843%);stroke-opacity:1;stroke-miterlimit:10;" d="M 604.308594 185.039062 L 604.308594 176.582031 "/>
<path style="fill:none;stroke-width:1.066978;stroke-linecap:butt;stroke-linejoin:round;stroke:rgb(100%,75.294118%,79.607843%);stroke-opacity:1;stroke-miterlimit:10;" d="M 605.808594 185.039062 L 605.808594 176.785156 "/>
<path style="fill:none;stroke-width:1.066978;stroke-linecap:butt;stroke-linejoin:round;stroke:rgb(100%,75.294118%,79.607843%);stroke-opacity:1;stroke-miterlimit:10;" d="M 607.308594 185.039062 L 607.308594 176.984375 "/>
<path style="fill:none;stroke-width:1.066978;stroke-linecap:butt;stroke-linejoin:round;stroke:rgb(100%,75.294118%,79.607843%);stroke-opacity:1;stroke-miterlimit:10;" d="M 608.808594 185.039062 L 608.808594 177.175781 "/>
<path style="fill:none;stroke-width:1.066978;stroke-linecap:butt;stroke-linejoin:round;stroke:rgb(100%,75.294118%,79.607843%);stroke-opacity:1;stroke-miterlimit:10;" d="M 610.308594 185.039062 L 610.308594 177.363281 "/>
<path style="fill:none;stroke-width:1.066978;stroke-linecap:butt;stroke-linejoin:round;stroke:rgb(100%,75.294118%,79.607843%);stroke-opacity:1;stroke-miterlimit:10;" d="M 611.808594 185.039062 L 611.808594 177.550781 "/>
<path style="fill:none;stroke-width:1.066978;stroke-linecap:butt;stroke-linejoin:round;stroke:rgb(100%,75.294118%,79.607843%);stroke-opacity:1;stroke-miterlimit:10;" d="M 613.308594 185.039062 L 613.308594 177.730469 "/>
<path style="fill:none;stroke-width:1.066978;stroke-linecap:butt;stroke-linejoin:round;stroke:rgb(100%,75.294118%,79.607843%);stroke-opacity:1;stroke-miterlimit:10;" d="M 614.808594 185.039062 L 614.808594 177.90625 "/>
<path style="fill:none;stroke-width:1.066978;stroke-linecap:butt;stroke-linejoin:round;stroke:rgb(100%,75.294118%,79.607843%);stroke-opacity:1;stroke-miterlimit:10;" d="M 616.304688 185.039062 L 616.304688 178.082031 "/>
<path style="fill:none;stroke-width:1.066978;stroke-linecap:butt;stroke-linejoin:round;stroke:rgb(100%,75.294118%,79.607843%);stroke-opacity:1;stroke-miterlimit:10;" d="M 617.804688 185.039062 L 617.804688 178.25 "/>
<path style="fill:none;stroke-width:1.066978;stroke-linecap:butt;stroke-linejoin:round;stroke:rgb(100%,75.294118%,79.607843%);stroke-opacity:1;stroke-miterlimit:10;" d="M 619.304688 185.039062 L 619.304688 178.414062 "/>
<path style="fill:none;stroke-width:1.066978;stroke-linecap:butt;stroke-linejoin:round;stroke:rgb(100%,75.294118%,79.607843%);stroke-opacity:1;stroke-miterlimit:10;" d="M 620.804688 185.039062 L 620.804688 178.578125 "/>
<path style="fill:none;stroke-width:1.066978;stroke-linecap:butt;stroke-linejoin:round;stroke:rgb(100%,75.294118%,79.607843%);stroke-opacity:1;stroke-miterlimit:10;" d="M 622.304688 185.039062 L 622.304688 178.734375 "/>
<path style="fill:none;stroke-width:1.066978;stroke-linecap:butt;stroke-linejoin:round;stroke:rgb(100%,75.294118%,79.607843%);stroke-opacity:1;stroke-miterlimit:10;" d="M 623.804688 185.039062 L 623.804688 178.890625 "/>
<path style="fill:none;stroke-width:1.066978;stroke-linecap:butt;stroke-linejoin:round;stroke:rgb(100%,75.294118%,79.607843%);stroke-opacity:1;stroke-miterlimit:10;" d="M 625.304688 185.039062 L 625.304688 179.042969 "/>
<path style="fill:none;stroke-width:1.066978;stroke-linecap:butt;stroke-linejoin:round;stroke:rgb(100%,75.294118%,79.607843%);stroke-opacity:1;stroke-miterlimit:10;" d="M 626.804688 185.039062 L 626.804688 179.1875 "/>
<path style="fill:none;stroke-width:1.066978;stroke-linecap:butt;stroke-linejoin:round;stroke:rgb(100%,75.294118%,79.607843%);stroke-opacity:1;stroke-miterlimit:10;" d="M 628.304688 185.039062 L 628.304688 179.332031 "/>
<path style="fill:none;stroke-width:1.066978;stroke-linecap:butt;stroke-linejoin:round;stroke:rgb(100%,75.294118%,79.607843%);stroke-opacity:1;stroke-miterlimit:10;" d="M 629.804688 185.039062 L 629.804688 179.476562 "/>
<path style="fill:none;stroke-width:1.066978;stroke-linecap:butt;stroke-linejoin:round;stroke:rgb(100%,75.294118%,79.607843%);stroke-opacity:1;stroke-miterlimit:10;" d="M 631.300781 185.039062 L 631.300781 179.613281 "/>
<path style="fill:none;stroke-width:1.066978;stroke-linecap:butt;stroke-linejoin:round;stroke:rgb(100%,75.294118%,79.607843%);stroke-opacity:1;stroke-miterlimit:10;" d="M 632.800781 185.039062 L 632.800781 179.75 "/>
<path style="fill:none;stroke-width:1.066978;stroke-linecap:butt;stroke-linejoin:round;stroke:rgb(100%,75.294118%,79.607843%);stroke-opacity:1;stroke-miterlimit:10;" d="M 634.300781 185.039062 L 634.300781 179.878906 "/>
<path style="fill:none;stroke-width:1.066978;stroke-linecap:butt;stroke-linejoin:round;stroke:rgb(100%,75.294118%,79.607843%);stroke-opacity:1;stroke-miterlimit:10;" d="M 635.800781 185.039062 L 635.800781 180.007812 "/>
<path style="fill:none;stroke-width:1.066978;stroke-linecap:butt;stroke-linejoin:round;stroke:rgb(100%,75.294118%,79.607843%);stroke-opacity:1;stroke-miterlimit:10;" d="M 637.300781 185.039062 L 637.300781 180.136719 "/>
<path style="fill:none;stroke-width:1.066978;stroke-linecap:butt;stroke-linejoin:round;stroke:rgb(100%,75.294118%,79.607843%);stroke-opacity:1;stroke-miterlimit:10;" d="M 638.800781 185.039062 L 638.800781 180.257812 "/>
<path style="fill:none;stroke-width:1.066978;stroke-linecap:butt;stroke-linejoin:round;stroke:rgb(100%,75.294118%,79.607843%);stroke-opacity:1;stroke-miterlimit:10;" d="M 640.300781 185.039062 L 640.300781 180.378906 "/>
<path style="fill:none;stroke-width:1.066978;stroke-linecap:butt;stroke-linejoin:round;stroke:rgb(100%,75.294118%,79.607843%);stroke-opacity:1;stroke-miterlimit:10;" d="M 641.800781 185.039062 L 641.800781 180.496094 "/>
<path style="fill:none;stroke-width:1.066978;stroke-linecap:butt;stroke-linejoin:round;stroke:rgb(100%,75.294118%,79.607843%);stroke-opacity:1;stroke-miterlimit:10;" d="M 643.300781 185.039062 L 643.300781 180.609375 "/>
<path style="fill:none;stroke-width:1.066978;stroke-linecap:butt;stroke-linejoin:round;stroke:rgb(100%,75.294118%,79.607843%);stroke-opacity:1;stroke-miterlimit:10;" d="M 644.800781 185.039062 L 644.800781 180.722656 "/>
<path style="fill:none;stroke-width:1.066978;stroke-linecap:butt;stroke-linejoin:round;stroke:rgb(100%,75.294118%,79.607843%);stroke-opacity:1;stroke-miterlimit:10;" d="M 646.296875 185.039062 L 646.296875 180.832031 "/>
<path style="fill:none;stroke-width:1.066978;stroke-linecap:butt;stroke-linejoin:round;stroke:rgb(100%,75.294118%,79.607843%);stroke-opacity:1;stroke-miterlimit:10;" d="M 647.796875 185.039062 L 647.796875 180.9375 "/>
<path style="fill:none;stroke-width:1.066978;stroke-linecap:butt;stroke-linejoin:round;stroke:rgb(100%,75.294118%,79.607843%);stroke-opacity:1;stroke-miterlimit:10;" d="M 649.296875 185.039062 L 649.296875 181.042969 "/>
<path style="fill:none;stroke-width:1.066978;stroke-linecap:butt;stroke-linejoin:round;stroke:rgb(100%,75.294118%,79.607843%);stroke-opacity:1;stroke-miterlimit:10;" d="M 650.796875 185.039062 L 650.796875 181.144531 "/>
<path style="fill:none;stroke-width:1.066978;stroke-linecap:butt;stroke-linejoin:round;stroke:rgb(100%,75.294118%,79.607843%);stroke-opacity:1;stroke-miterlimit:10;" d="M 652.296875 185.039062 L 652.296875 181.246094 "/>
<path style="fill:none;stroke-width:1.066978;stroke-linecap:butt;stroke-linejoin:round;stroke:rgb(100%,75.294118%,79.607843%);stroke-opacity:1;stroke-miterlimit:10;" d="M 653.796875 185.039062 L 653.796875 181.34375 "/>
<path style="fill:none;stroke-width:1.066978;stroke-linecap:butt;stroke-linejoin:round;stroke:rgb(100%,75.294118%,79.607843%);stroke-opacity:1;stroke-miterlimit:10;" d="M 655.296875 185.039062 L 655.296875 181.4375 "/>
<path style="fill:none;stroke-width:1.066978;stroke-linecap:butt;stroke-linejoin:round;stroke:rgb(100%,75.294118%,79.607843%);stroke-opacity:1;stroke-miterlimit:10;" d="M 656.796875 185.039062 L 656.796875 181.53125 "/>
<path style="fill:none;stroke-width:1.066978;stroke-linecap:butt;stroke-linejoin:round;stroke:rgb(100%,75.294118%,79.607843%);stroke-opacity:1;stroke-miterlimit:10;" d="M 658.296875 185.039062 L 658.296875 181.621094 "/>
<path style="fill:none;stroke-width:1.066978;stroke-linecap:butt;stroke-linejoin:round;stroke:rgb(100%,75.294118%,79.607843%);stroke-opacity:1;stroke-miterlimit:10;" d="M 659.792969 185.039062 L 659.792969 181.707031 "/>
<path style="fill:none;stroke-width:1.066978;stroke-linecap:butt;stroke-linejoin:round;stroke:rgb(100%,75.294118%,79.607843%);stroke-opacity:1;stroke-miterlimit:10;" d="M 661.292969 185.039062 L 661.292969 181.792969 "/>
<path style="fill:none;stroke-width:1.066978;stroke-linecap:butt;stroke-linejoin:round;stroke:rgb(100%,75.294118%,79.607843%);stroke-opacity:1;stroke-miterlimit:10;" d="M 662.792969 185.039062 L 662.792969 181.878906 "/>
<path style="fill:none;stroke-width:1.066978;stroke-linecap:butt;stroke-linejoin:round;stroke:rgb(100%,75.294118%,79.607843%);stroke-opacity:1;stroke-miterlimit:10;" d="M 664.292969 185.039062 L 664.292969 181.960938 "/>
<path style="fill:none;stroke-width:1.066978;stroke-linecap:butt;stroke-linejoin:round;stroke:rgb(100%,75.294118%,79.607843%);stroke-opacity:1;stroke-miterlimit:10;" d="M 665.792969 185.039062 L 665.792969 182.039062 "/>
<path style="fill:none;stroke-width:1.066978;stroke-linecap:butt;stroke-linejoin:round;stroke:rgb(100%,75.294118%,79.607843%);stroke-opacity:1;stroke-miterlimit:10;" d="M 667.292969 185.039062 L 667.292969 182.117188 "/>
<path style="fill:none;stroke-width:1.066978;stroke-linecap:butt;stroke-linejoin:round;stroke:rgb(100%,75.294118%,79.607843%);stroke-opacity:1;stroke-miterlimit:10;" d="M 668.792969 185.039062 L 668.792969 182.195312 "/>
<path style="fill:none;stroke-width:1.066978;stroke-linecap:butt;stroke-linejoin:round;stroke:rgb(100%,75.294118%,79.607843%);stroke-opacity:1;stroke-miterlimit:10;" d="M 670.292969 185.039062 L 670.292969 182.269531 "/>
<path style="fill:none;stroke-width:1.066978;stroke-linecap:butt;stroke-linejoin:round;stroke:rgb(100%,75.294118%,79.607843%);stroke-opacity:1;stroke-miterlimit:10;" d="M 671.792969 185.039062 L 671.792969 182.34375 "/>
<path style="fill:none;stroke-width:1.066978;stroke-linecap:butt;stroke-linejoin:round;stroke:rgb(100%,75.294118%,79.607843%);stroke-opacity:1;stroke-miterlimit:10;" d="M 673.292969 185.039062 L 673.292969 182.414062 "/>
<path style="fill:none;stroke-width:1.066978;stroke-linecap:butt;stroke-linejoin:round;stroke:rgb(100%,75.294118%,79.607843%);stroke-opacity:1;stroke-miterlimit:10;" d="M 674.789062 185.039062 L 674.789062 182.480469 "/>
<path style="fill:none;stroke-width:1.066978;stroke-linecap:butt;stroke-linejoin:round;stroke:rgb(100%,75.294118%,79.607843%);stroke-opacity:1;stroke-miterlimit:10;" d="M 676.289062 185.039062 L 676.289062 182.550781 "/>
<path style="fill:none;stroke-width:1.066978;stroke-linecap:butt;stroke-linejoin:round;stroke:rgb(100%,75.294118%,79.607843%);stroke-opacity:1;stroke-miterlimit:10;" d="M 677.789062 185.039062 L 677.789062 182.617188 "/>
<path style="fill:none;stroke-width:1.066978;stroke-linecap:butt;stroke-linejoin:round;stroke:rgb(100%,75.294118%,79.607843%);stroke-opacity:1;stroke-miterlimit:10;" d="M 679.289062 185.039062 L 679.289062 182.679688 "/>
<path style="fill:none;stroke-width:1.066978;stroke-linecap:butt;stroke-linejoin:round;stroke:rgb(100%,75.294118%,79.607843%);stroke-opacity:1;stroke-miterlimit:10;" d="M 680.789062 185.039062 L 680.789062 182.742188 "/>
<path style="fill:none;stroke-width:1.066978;stroke-linecap:butt;stroke-linejoin:round;stroke:rgb(100%,75.294118%,79.607843%);stroke-opacity:1;stroke-miterlimit:10;" d="M 682.289062 185.039062 L 682.289062 182.804688 "/>
<path style="fill:none;stroke-width:1.066978;stroke-linecap:butt;stroke-linejoin:round;stroke:rgb(100%,75.294118%,79.607843%);stroke-opacity:1;stroke-miterlimit:10;" d="M 683.789062 185.039062 L 683.789062 182.863281 "/>
<path style="fill:none;stroke-width:1.066978;stroke-linecap:butt;stroke-linejoin:round;stroke:rgb(100%,75.294118%,79.607843%);stroke-opacity:1;stroke-miterlimit:10;" d="M 685.289062 185.039062 L 685.289062 182.921875 "/>
<path style="fill:none;stroke-width:1.066978;stroke-linecap:butt;stroke-linejoin:round;stroke:rgb(100%,75.294118%,79.607843%);stroke-opacity:1;stroke-miterlimit:10;" d="M 686.789062 185.039062 L 686.789062 182.976562 "/>
<path style="fill:none;stroke-width:1.066978;stroke-linecap:butt;stroke-linejoin:round;stroke:rgb(100%,75.294118%,79.607843%);stroke-opacity:1;stroke-miterlimit:10;" d="M 688.289062 185.039062 L 688.289062 183.03125 "/>
<path style="fill:none;stroke-width:1.066978;stroke-linecap:butt;stroke-linejoin:round;stroke:rgb(100%,75.294118%,79.607843%);stroke-opacity:1;stroke-miterlimit:10;" d="M 689.785156 185.039062 L 689.785156 183.085938 "/>
<path style="fill:none;stroke-width:1.066978;stroke-linecap:butt;stroke-linejoin:round;stroke:rgb(100%,75.294118%,79.607843%);stroke-opacity:1;stroke-miterlimit:10;" d="M 691.285156 185.039062 L 691.285156 183.136719 "/>
<path style="fill:none;stroke-width:1.066978;stroke-linecap:butt;stroke-linejoin:round;stroke:rgb(100%,75.294118%,79.607843%);stroke-opacity:1;stroke-miterlimit:10;" d="M 692.785156 185.039062 L 692.785156 183.1875 "/>
<path style="fill:none;stroke-width:1.066978;stroke-linecap:butt;stroke-linejoin:round;stroke:rgb(100%,75.294118%,79.607843%);stroke-opacity:1;stroke-miterlimit:10;" d="M 694.285156 185.039062 L 694.285156 183.238281 "/>
<path style="fill:none;stroke-width:1.066978;stroke-linecap:butt;stroke-linejoin:round;stroke:rgb(100%,75.294118%,79.607843%);stroke-opacity:1;stroke-miterlimit:10;" d="M 695.785156 185.039062 L 695.785156 183.289062 "/>
<path style="fill:none;stroke-width:1.066978;stroke-linecap:butt;stroke-linejoin:round;stroke:rgb(100%,75.294118%,79.607843%);stroke-opacity:1;stroke-miterlimit:10;" d="M 697.285156 185.039062 L 697.285156 183.335938 "/>
<path style="fill:none;stroke-width:1.066978;stroke-linecap:butt;stroke-linejoin:round;stroke:rgb(100%,75.294118%,79.607843%);stroke-opacity:1;stroke-miterlimit:10;" d="M 698.785156 185.039062 L 698.785156 183.382812 "/>
<path style="fill:none;stroke-width:1.066978;stroke-linecap:butt;stroke-linejoin:round;stroke:rgb(100%,75.294118%,79.607843%);stroke-opacity:1;stroke-miterlimit:10;" d="M 700.285156 185.039062 L 700.285156 183.425781 "/>
<path style="fill:none;stroke-width:1.066978;stroke-linecap:butt;stroke-linejoin:round;stroke:rgb(100%,75.294118%,79.607843%);stroke-opacity:1;stroke-miterlimit:10;" d="M 701.785156 185.039062 L 701.785156 183.46875 "/>
<path style="fill:none;stroke-width:1.066978;stroke-linecap:butt;stroke-linejoin:round;stroke:rgb(100%,75.294118%,79.607843%);stroke-opacity:1;stroke-miterlimit:10;" d="M 703.28125 185.039062 L 703.28125 183.511719 "/>
<path style="fill:none;stroke-width:1.066978;stroke-linecap:butt;stroke-linejoin:round;stroke:rgb(100%,75.294118%,79.607843%);stroke-opacity:1;stroke-miterlimit:10;" d="M 704.78125 185.039062 L 704.78125 183.554688 "/>
<path style="fill:none;stroke-width:1.066978;stroke-linecap:butt;stroke-linejoin:round;stroke:rgb(100%,75.294118%,79.607843%);stroke-opacity:1;stroke-miterlimit:10;" d="M 706.28125 185.039062 L 706.28125 183.59375 "/>
<path style="fill:none;stroke-width:1.066978;stroke-linecap:butt;stroke-linejoin:round;stroke:rgb(100%,75.294118%,79.607843%);stroke-opacity:1;stroke-miterlimit:10;" d="M 707.78125 185.039062 L 707.78125 183.632812 "/>
<path style="fill:none;stroke-width:1.066978;stroke-linecap:butt;stroke-linejoin:round;stroke:rgb(100%,75.294118%,79.607843%);stroke-opacity:1;stroke-miterlimit:10;" d="M 709.28125 185.039062 L 709.28125 183.671875 "/>
<path style="fill:none;stroke-width:1.066978;stroke-linecap:butt;stroke-linejoin:round;stroke:rgb(100%,75.294118%,79.607843%);stroke-opacity:1;stroke-miterlimit:10;" d="M 710.78125 185.039062 L 710.78125 183.710938 "/>
<path style="fill:none;stroke-width:1.066978;stroke-linecap:butt;stroke-linejoin:round;stroke:rgb(100%,75.294118%,79.607843%);stroke-opacity:1;stroke-miterlimit:10;" d="M 712.28125 185.039062 L 712.28125 183.746094 "/>
<path style="fill:none;stroke-width:1.066978;stroke-linecap:butt;stroke-linejoin:round;stroke:rgb(100%,75.294118%,79.607843%);stroke-opacity:1;stroke-miterlimit:10;" d="M 713.78125 185.039062 L 713.78125 183.78125 "/>
<path style="fill:none;stroke-width:1.066978;stroke-linecap:butt;stroke-linejoin:round;stroke:rgb(100%,75.294118%,79.607843%);stroke-opacity:1;stroke-miterlimit:10;" d="M 715.28125 185.039062 L 715.28125 183.816406 "/>
<path style="fill:none;stroke-width:1.066978;stroke-linecap:butt;stroke-linejoin:round;stroke:rgb(100%,75.294118%,79.607843%);stroke-opacity:1;stroke-miterlimit:10;" d="M 716.78125 185.039062 L 716.78125 183.851562 "/>
<g style="fill:rgb(0%,0%,0%);fill-opacity:1;">
  <use xlink:href="#glyph0-1" x="567.304688" y="162.753906"/>
  <use xlink:href="#glyph0-2" x="574.304688" y="162.753906"/>
  <use xlink:href="#glyph0-3" x="580.304688" y="162.753906"/>
  <use xlink:href="#glyph0-4" x="586.304688" y="162.753906"/>
  <use xlink:href="#glyph0-5" x="592.304688" y="162.753906"/>
  <use xlink:href="#glyph0-6" x="595.304688" y="162.753906"/>
  <use xlink:href="#glyph0-7" x="601.304688" y="162.753906"/>
  <use xlink:href="#glyph0-5" x="607.304688" y="162.753906"/>
  <use xlink:href="#glyph0-8" x="610.304688" y="162.753906"/>
  <use xlink:href="#glyph0-7" x="618.304688" y="162.753906"/>
  <use xlink:href="#glyph0-9" x="624.304688" y="162.753906"/>
  <use xlink:href="#glyph0-10" x="630.304688" y="162.753906"/>
  <use xlink:href="#glyph0-4" x="636.304688" y="162.753906"/>
  <use xlink:href="#glyph0-11" x="642.304688" y="162.753906"/>
  <use xlink:href="#glyph0-2" x="648.304688" y="162.753906"/>
  <use xlink:href="#glyph0-5" x="654.304688" y="162.753906"/>
  <use xlink:href="#glyph0-6" x="657.304688" y="162.753906"/>
  <use xlink:href="#glyph0-7" x="663.304688" y="162.753906"/>
  <use xlink:href="#glyph0-5" x="669.304688" y="162.753906"/>
  <use xlink:href="#glyph0-12" x="672.304688" y="162.753906"/>
  <use xlink:href="#glyph0-13" x="680.304688" y="162.753906"/>
</g>
<g style="fill:rgb(30.196078%,30.196078%,30.196078%);fill-opacity:1;">
  <use xlink:href="#glyph1-1" x="109.941406" y="206.759766"/>
  <use xlink:href="#glyph1-2" x="116.941406" y="206.759766"/>
</g>
<g style="fill:rgb(30.196078%,30.196078%,30.196078%);fill-opacity:1;">
  <use xlink:href="#glyph1-3" x="259.898438" y="206.759766"/>
  <use xlink:href="#glyph1-2" x="266.898438" y="206.759766"/>
</g>
<g style="fill:rgb(30.196078%,30.196078%,30.196078%);fill-opacity:1;">
  <use xlink:href="#glyph1-4" x="409.859375" y="206.759766"/>
  <use xlink:href="#glyph1-2" x="416.859375" y="206.759766"/>
</g>
<g style="fill:rgb(30.196078%,30.196078%,30.196078%);fill-opacity:1;">
  <use xlink:href="#glyph1-5" x="559.820312" y="206.759766"/>
  <use xlink:href="#glyph1-2" x="566.820312" y="206.759766"/>
</g>
<g style="fill:rgb(30.196078%,30.196078%,30.196078%);fill-opacity:1;">
  <use xlink:href="#glyph1-6" x="709.78125" y="206.759766"/>
  <use xlink:href="#glyph1-2" x="716.78125" y="206.759766"/>
</g>
</g>
</svg>
