<?xml version="1.0" encoding="UTF-8"?>
<svg xmlns="http://www.w3.org/2000/svg" xmlns:xlink="http://www.w3.org/1999/xlink" width="756pt" height="504pt" viewBox="0 0 756 504" version="1.1">
<defs>
<g>
<symbol overflow="visible" id="glyph0-0">
<path style="stroke:none;" d="M 5 0 L 5 -30 L 35 -30 L 35 0 Z M 7.5 -2.5 L 32.5 -2.5 L 32.5 -27.5 L 7.5 -27.5 Z M 7.5 -2.5 "/>
</symbol>
<symbol overflow="visible" id="glyph0-1">
<path style="stroke:none;" d="M 22.75 -8.671875 C 22.75 -6.046875 21.875 -3.867188 20.125 -2.140625 C 18.375 -0.421875 16.164062 0.4375 13.5 0.4375 C 12.46875 0.4375 11.378906 0.289062 10.234375 0 C 9.085938 -0.289062 8.101562 -0.707031 7.28125 -1.25 L 7.28125 8.046875 L 3.609375 8.046875 L 3.609375 -21.0625 C 3.609375 -23.976562 4.429688 -26.257812 6.078125 -27.90625 C 7.734375 -29.5625 10.007812 -30.390625 12.90625 -30.390625 C 14.082031 -30.390625 15.15625 -30.25 16.125 -29.96875 C 17.09375 -29.6875 17.960938 -29.25 18.734375 -28.65625 C 19.472656 -28.09375 20.0625 -27.363281 20.5 -26.46875 C 20.945312 -25.570312 21.171875 -24.53125 21.171875 -23.34375 C 21.171875 -21.6875 20.71875 -20.242188 19.8125 -19.015625 C 18.90625 -17.785156 17.628906 -16.929688 15.984375 -16.453125 L 15.984375 -16.109375 C 18.046875 -15.773438 19.6875 -14.957031 20.90625 -13.65625 C 22.132812 -12.363281 22.75 -10.703125 22.75 -8.671875 Z M 18.96875 -8.765625 C 18.96875 -9.929688 18.742188 -10.875 18.296875 -11.59375 C 17.847656 -12.3125 17.242188 -12.875 16.484375 -13.28125 C 15.710938 -13.695312 14.851562 -13.976562 13.90625 -14.125 C 12.957031 -14.269531 12.007812 -14.34375 11.0625 -14.34375 L 10.359375 -14.34375 L 10.359375 -17.46875 L 11.0625 -17.46875 C 11.914062 -17.46875 12.765625 -17.5625 13.609375 -17.75 C 14.460938 -17.9375 15.140625 -18.222656 15.640625 -18.609375 C 16.242188 -19.054688 16.691406 -19.597656 16.984375 -20.234375 C 17.273438 -20.867188 17.421875 -21.742188 17.421875 -22.859375 C 17.421875 -24.316406 16.972656 -25.421875 16.078125 -26.171875 C 15.179688 -26.929688 14.019531 -27.3125 12.59375 -27.3125 C 11.644531 -27.3125 10.832031 -27.132812 10.15625 -26.78125 C 9.476562 -26.4375 8.925781 -25.976562 8.5 -25.40625 C 8.082031 -24.832031 7.773438 -24.164062 7.578125 -23.40625 C 7.378906 -22.644531 7.28125 -21.863281 7.28125 -21.0625 L 7.28125 -4.21875 C 8.144531 -3.726562 9.0625 -3.378906 10.03125 -3.171875 C 11.007812 -2.972656 11.96875 -2.875 12.90625 -2.875 C 14.851562 -2.875 16.347656 -3.382812 17.390625 -4.40625 C 18.441406 -5.425781 18.96875 -6.878906 18.96875 -8.765625 Z M 18.96875 -8.765625 "/>
</symbol>
</g>
<clipPath id="clip1">
  <path d="M 8.21875 424 L 750.519531 424 L 750.519531 426 L 8.21875 426 Z M 8.21875 424 "/>
</clipPath>
<clipPath id="clip2">
  <path d="M 378 5.480469 L 381 5.480469 L 381 444.589844 L 378 444.589844 Z M 378 5.480469 "/>
</clipPath>
</defs>
<g id="surface74">
<rect x="0" y="0" width="756" height="504" style="fill:rgb(100%,100%,100%);fill-opacity:1;stroke:none;"/>
<path style=" stroke:none;fill-rule:nonzero;fill:rgb(90.196078%,25.490196%,45.098039%);fill-opacity:0.901961;" d="M 41.960938 424.496094 L 42.804688 424.488281 L 44.492188 424.480469 L 46.179688 424.464844 L 47.019531 424.460938 L 53.769531 424.398438 L 54.613281 424.386719 L 55.457031 424.378906 L 56.300781 424.367188 L 57.144531 424.359375 L 60.519531 424.3125 L 61.359375 424.300781 L 63.046875 424.277344 L 63.890625 424.261719 L 64.734375 424.25 L 69.796875 424.15625 L 71.484375 424.117188 L 72.328125 424.101562 L 73.171875 424.082031 L 74.015625 424.058594 L 74.859375 424.039062 L 75.699219 424.015625 L 76.542969 423.996094 L 78.230469 423.949219 L 79.074219 423.921875 L 79.917969 423.898438 L 82.449219 423.816406 L 83.292969 423.785156 L 84.136719 423.757812 L 84.980469 423.726562 L 85.824219 423.691406 L 86.667969 423.660156 L 89.199219 423.554688 L 90.042969 423.515625 L 90.882812 423.476562 L 92.570312 423.398438 L 93.414062 423.355469 L 94.257812 423.308594 L 95.101562 423.265625 L 95.945312 423.21875 L 96.789062 423.167969 L 97.632812 423.121094 L 98.476562 423.070312 L 101.007812 422.90625 L 102.695312 422.789062 L 104.382812 422.664062 L 105.222656 422.597656 L 106.910156 422.464844 L 107.753906 422.390625 L 108.597656 422.320312 L 109.441406 422.242188 L 110.285156 422.167969 L 112.816406 421.921875 L 113.660156 421.832031 L 114.503906 421.746094 L 116.191406 421.558594 L 117.035156 421.460938 L 118.722656 421.257812 L 119.5625 421.152344 L 121.25 420.933594 L 122.9375 420.699219 L 123.78125 420.578125 L 125.46875 420.328125 L 126.3125 420.195312 L 128 419.921875 L 128.84375 419.78125 L 130.53125 419.484375 L 132.21875 419.171875 L 133.0625 419.011719 L 133.902344 418.84375 L 135.589844 418.5 L 136.433594 418.320312 L 137.277344 418.136719 L 138.964844 417.753906 L 139.808594 417.554688 L 140.652344 417.351562 L 142.339844 416.929688 L 143.183594 416.710938 L 144.027344 416.484375 L 144.871094 416.253906 L 145.714844 416.019531 L 146.558594 415.777344 L 147.402344 415.53125 L 148.246094 415.277344 L 149.085938 415.019531 L 149.929688 414.753906 L 150.773438 414.480469 L 151.617188 414.203125 L 152.460938 413.917969 L 153.304688 413.625 L 154.148438 413.328125 L 154.992188 413.023438 L 155.835938 412.710938 L 156.679688 412.390625 L 157.523438 412.0625 L 158.367188 411.730469 L 159.210938 411.386719 L 160.054688 411.039062 L 160.898438 410.679688 L 161.742188 410.316406 L 162.585938 409.941406 L 163.425781 409.558594 L 164.269531 409.171875 L 165.113281 408.773438 L 165.957031 408.363281 L 166.800781 407.949219 L 167.644531 407.523438 L 168.488281 407.089844 L 169.332031 406.648438 L 170.175781 406.195312 L 171.019531 405.734375 L 171.863281 405.261719 L 172.707031 404.78125 L 173.550781 404.289062 L 174.394531 403.789062 L 175.238281 403.277344 L 176.082031 402.753906 L 176.925781 402.222656 L 177.765625 401.679688 L 178.609375 401.125 L 179.453125 400.558594 L 180.296875 399.984375 L 181.140625 399.394531 L 181.984375 398.796875 L 182.828125 398.1875 L 183.671875 397.566406 L 184.515625 396.929688 L 185.359375 396.285156 L 186.203125 395.625 L 187.046875 394.957031 L 187.890625 394.273438 L 188.734375 393.578125 L 189.578125 392.871094 L 190.421875 392.148438 L 191.265625 391.414062 L 192.109375 390.667969 L 192.949219 389.90625 L 193.792969 389.132812 L 194.636719 388.34375 L 195.480469 387.542969 L 196.324219 386.726562 L 197.167969 385.898438 L 198.011719 385.054688 L 198.855469 384.195312 L 199.699219 383.324219 L 200.542969 382.4375 L 201.386719 381.535156 L 202.230469 380.617188 L 203.074219 379.6875 L 203.917969 378.738281 L 204.761719 377.777344 L 205.605469 376.800781 L 206.449219 375.808594 L 207.289062 374.796875 L 208.132812 373.773438 L 208.976562 372.734375 L 209.820312 371.675781 L 210.664062 370.605469 L 211.507812 369.515625 L 212.351562 368.410156 L 213.195312 367.289062 L 214.039062 366.152344 L 214.882812 364.996094 L 215.726562 363.828125 L 216.570312 362.636719 L 217.414062 361.433594 L 218.257812 360.210938 L 219.101562 358.972656 L 219.945312 357.71875 L 220.789062 356.445312 L 221.628906 355.152344 L 222.472656 353.84375 L 223.316406 352.519531 L 224.160156 351.175781 L 225.003906 349.816406 L 225.847656 348.4375 L 226.691406 347.042969 L 227.535156 345.628906 L 228.378906 344.199219 L 229.222656 342.75 L 230.066406 341.285156 L 230.910156 339.800781 L 231.753906 338.296875 L 232.597656 336.777344 L 233.441406 335.242188 L 234.285156 333.6875 L 235.128906 332.113281 L 235.972656 330.523438 L 236.8125 328.914062 L 237.65625 327.285156 L 238.5 325.640625 L 239.34375 323.980469 L 240.1875 322.300781 L 241.03125 320.605469 L 241.875 318.890625 L 242.71875 317.15625 L 243.5625 315.40625 L 244.40625 313.640625 L 245.25 311.855469 L 246.09375 310.054688 L 246.9375 308.234375 L 247.78125 306.398438 L 248.625 304.546875 L 249.46875 302.675781 L 250.3125 300.789062 L 251.152344 298.886719 L 251.996094 296.96875 L 252.839844 295.03125 L 253.683594 293.078125 L 254.527344 291.109375 L 255.371094 289.128906 L 256.214844 287.128906 L 257.058594 285.113281 L 257.902344 283.082031 L 258.746094 281.035156 L 259.589844 278.976562 L 260.433594 276.898438 L 261.277344 274.808594 L 262.121094 272.703125 L 262.964844 270.585938 L 263.808594 268.453125 L 264.652344 266.304688 L 265.492188 264.144531 L 266.335938 261.972656 L 267.179688 259.789062 L 268.023438 257.589844 L 268.867188 255.378906 L 269.710938 253.152344 L 270.554688 250.917969 L 271.398438 248.671875 L 272.242188 246.414062 L 273.085938 244.144531 L 273.929688 241.867188 L 274.773438 239.578125 L 275.617188 237.277344 L 276.460938 234.96875 L 277.304688 232.648438 L 278.148438 230.324219 L 278.992188 227.988281 L 279.835938 225.644531 L 280.675781 223.289062 L 281.519531 220.929688 L 282.363281 218.566406 L 283.207031 216.191406 L 284.050781 213.8125 L 284.894531 211.429688 L 285.738281 209.039062 L 287.425781 204.242188 L 289.113281 199.429688 L 289.957031 197.019531 L 290.800781 194.605469 L 293.332031 187.351562 L 294.175781 184.929688 L 295.015625 182.507812 L 295.859375 180.085938 L 296.703125 177.667969 L 297.546875 175.246094 L 298.390625 172.828125 L 300.921875 165.585938 L 301.765625 163.179688 L 302.609375 160.777344 L 303.453125 158.378906 L 304.296875 155.984375 L 305.140625 153.597656 L 305.984375 151.214844 L 306.828125 148.839844 L 307.671875 146.472656 L 308.515625 144.109375 L 309.355469 141.757812 L 310.199219 139.414062 L 311.042969 137.082031 L 311.886719 134.757812 L 312.730469 132.445312 L 313.574219 130.140625 L 314.417969 127.851562 L 315.261719 125.570312 L 316.105469 123.304688 L 316.949219 121.050781 L 317.792969 118.8125 L 318.636719 116.585938 L 319.480469 114.375 L 320.324219 112.179688 L 321.167969 110.003906 L 322.011719 107.839844 L 322.855469 105.695312 L 323.695312 103.566406 L 324.539062 101.457031 L 325.382812 99.363281 L 326.226562 97.292969 L 327.070312 95.242188 L 327.914062 93.207031 L 328.757812 91.199219 L 329.601562 89.207031 L 330.445312 87.238281 L 331.289062 85.292969 L 332.132812 83.371094 L 332.976562 81.472656 L 333.820312 79.597656 L 334.664062 77.746094 L 335.507812 75.921875 L 336.351562 74.121094 L 337.195312 72.34375 L 338.039062 70.597656 L 338.878906 68.875 L 339.722656 67.183594 L 340.566406 65.515625 L 341.410156 63.878906 L 342.253906 62.269531 L 343.097656 60.691406 L 343.941406 59.140625 L 344.785156 57.621094 L 345.628906 56.128906 L 346.472656 54.671875 L 347.316406 53.246094 L 348.160156 51.847656 L 349.003906 50.484375 L 349.847656 49.15625 L 350.691406 47.859375 L 351.535156 46.59375 L 352.378906 45.363281 L 353.21875 44.167969 L 354.0625 43.003906 L 354.90625 41.875 L 355.75 40.785156 L 356.59375 39.726562 L 357.4375 38.707031 L 358.28125 37.722656 L 359.125 36.773438 L 359.96875 35.859375 L 360.8125 34.984375 L 361.65625 34.144531 L 362.5 33.34375 L 363.34375 32.578125 L 364.1875 31.855469 L 365.03125 31.164062 L 365.875 30.515625 L 366.71875 29.90625 L 367.558594 29.332031 L 368.402344 28.796875 L 369.246094 28.304688 L 370.089844 27.847656 L 370.933594 27.429688 L 371.777344 27.050781 L 372.621094 26.714844 L 373.464844 26.414062 L 374.308594 26.15625 L 375.152344 25.9375 L 375.996094 25.757812 L 376.839844 25.617188 L 377.683594 25.519531 L 378.527344 25.457031 L 379.371094 25.4375 L 380.214844 25.457031 L 381.058594 25.519531 L 381.902344 25.617188 L 382.742188 25.757812 L 383.585938 25.9375 L 384.429688 26.15625 L 385.273438 26.414062 L 386.117188 26.714844 L 386.960938 27.050781 L 387.804688 27.429688 L 388.648438 27.847656 L 389.492188 28.304688 L 390.335938 28.796875 L 391.179688 29.332031 L 392.023438 29.90625 L 392.867188 30.515625 L 393.710938 31.164062 L 394.554688 31.855469 L 395.398438 32.578125 L 396.242188 33.34375 L 397.082031 34.144531 L 397.925781 34.984375 L 398.769531 35.859375 L 399.613281 36.773438 L 400.457031 37.722656 L 401.300781 38.707031 L 402.144531 39.726562 L 402.988281 40.785156 L 403.832031 41.875 L 404.675781 43.003906 L 405.519531 44.167969 L 406.363281 45.363281 L 407.207031 46.59375 L 408.050781 47.859375 L 408.894531 49.15625 L 409.738281 50.484375 L 410.582031 51.847656 L 411.421875 53.246094 L 412.265625 54.671875 L 413.109375 56.128906 L 413.953125 57.621094 L 414.796875 59.140625 L 415.640625 60.691406 L 416.484375 62.269531 L 417.328125 63.878906 L 418.171875 65.515625 L 419.015625 67.183594 L 419.859375 68.875 L 420.703125 70.597656 L 421.546875 72.34375 L 422.390625 74.121094 L 423.234375 75.921875 L 424.078125 77.746094 L 424.921875 79.597656 L 425.765625 81.472656 L 426.605469 83.371094 L 427.449219 85.292969 L 428.292969 87.238281 L 429.136719 89.207031 L 429.980469 91.199219 L 430.824219 93.207031 L 431.667969 95.242188 L 432.511719 97.292969 L 433.355469 99.363281 L 434.199219 101.457031 L 435.042969 103.566406 L 435.886719 105.695312 L 436.730469 107.839844 L 437.574219 110.003906 L 438.417969 112.179688 L 439.261719 114.375 L 440.105469 116.585938 L 440.945312 118.8125 L 441.789062 121.050781 L 442.632812 123.304688 L 443.476562 125.570312 L 444.320312 127.851562 L 445.164062 130.140625 L 446.007812 132.445312 L 446.851562 134.757812 L 447.695312 137.082031 L 448.539062 139.414062 L 449.382812 141.757812 L 450.226562 144.109375 L 451.070312 146.472656 L 451.914062 148.839844 L 452.757812 151.214844 L 453.601562 153.597656 L 454.445312 155.984375 L 455.285156 158.378906 L 456.128906 160.777344 L 456.972656 163.179688 L 457.816406 165.585938 L 460.347656 172.828125 L 461.191406 175.246094 L 462.035156 177.667969 L 462.878906 180.085938 L 465.410156 187.351562 L 467.941406 194.605469 L 468.785156 197.019531 L 469.628906 199.429688 L 470.46875 201.835938 L 471.3125 204.242188 L 473 209.039062 L 473.84375 211.429688 L 474.6875 213.8125 L 475.53125 216.191406 L 476.375 218.566406 L 477.21875 220.929688 L 478.0625 223.289062 L 478.90625 225.644531 L 479.75 227.988281 L 480.59375 230.324219 L 481.4375 232.648438 L 482.28125 234.96875 L 483.125 237.277344 L 483.96875 239.578125 L 484.808594 241.867188 L 485.652344 244.144531 L 486.496094 246.414062 L 487.339844 248.671875 L 488.183594 250.917969 L 489.027344 253.152344 L 489.871094 255.378906 L 490.714844 257.589844 L 491.558594 259.789062 L 492.402344 261.972656 L 493.246094 264.144531 L 494.089844 266.304688 L 494.933594 268.453125 L 495.777344 270.585938 L 496.621094 272.703125 L 497.464844 274.808594 L 498.308594 276.898438 L 499.148438 278.976562 L 499.992188 281.035156 L 500.835938 283.082031 L 501.679688 285.113281 L 502.523438 287.128906 L 503.367188 289.128906 L 504.210938 291.109375 L 505.054688 293.078125 L 505.898438 295.03125 L 506.742188 296.96875 L 507.585938 298.886719 L 508.429688 300.789062 L 509.273438 302.675781 L 510.117188 304.546875 L 510.960938 306.398438 L 511.804688 308.234375 L 512.648438 310.054688 L 513.488281 311.855469 L 514.332031 313.640625 L 515.175781 315.40625 L 516.019531 317.15625 L 516.863281 318.890625 L 517.707031 320.605469 L 518.550781 322.300781 L 519.394531 323.980469 L 520.238281 325.640625 L 521.082031 327.285156 L 521.925781 328.914062 L 522.769531 330.523438 L 523.613281 332.113281 L 524.457031 333.6875 L 525.300781 335.242188 L 526.144531 336.777344 L 526.988281 338.296875 L 527.832031 339.800781 L 528.671875 341.285156 L 529.515625 342.75 L 530.359375 344.199219 L 531.203125 345.628906 L 532.046875 347.042969 L 532.890625 348.4375 L 533.734375 349.816406 L 534.578125 351.175781 L 535.421875 352.519531 L 536.265625 353.84375 L 537.109375 355.152344 L 537.953125 356.445312 L 538.796875 357.71875 L 539.640625 358.972656 L 540.484375 360.210938 L 541.328125 361.433594 L 542.171875 362.636719 L 543.011719 363.828125 L 543.855469 364.996094 L 544.699219 366.152344 L 545.542969 367.289062 L 546.386719 368.410156 L 547.230469 369.515625 L 548.074219 370.605469 L 548.917969 371.675781 L 549.761719 372.734375 L 550.605469 373.773438 L 551.449219 374.796875 L 552.292969 375.808594 L 553.136719 376.800781 L 553.980469 377.777344 L 554.824219 378.738281 L 555.667969 379.6875 L 556.511719 380.617188 L 557.351562 381.535156 L 558.195312 382.4375 L 559.039062 383.324219 L 559.882812 384.195312 L 560.726562 385.054688 L 561.570312 385.898438 L 562.414062 386.726562 L 563.257812 387.542969 L 564.101562 388.34375 L 564.945312 389.132812 L 565.789062 389.90625 L 566.632812 390.667969 L 567.476562 391.414062 L 568.320312 392.148438 L 569.164062 392.871094 L 570.007812 393.578125 L 570.851562 394.273438 L 571.695312 394.957031 L 572.535156 395.625 L 573.378906 396.285156 L 574.222656 396.929688 L 575.066406 397.566406 L 575.910156 398.1875 L 576.753906 398.796875 L 577.597656 399.394531 L 578.441406 399.984375 L 579.285156 400.558594 L 580.128906 401.125 L 580.972656 401.679688 L 581.816406 402.222656 L 582.660156 402.753906 L 583.503906 403.277344 L 584.347656 403.789062 L 585.191406 404.289062 L 586.035156 404.78125 L 586.875 405.261719 L 587.71875 405.734375 L 588.5625 406.195312 L 589.40625 406.648438 L 590.25 407.089844 L 591.09375 407.523438 L 591.9375 407.949219 L 592.78125 408.363281 L 593.625 408.773438 L 594.46875 409.171875 L 595.3125 409.558594 L 596.15625 409.941406 L 597 410.316406 L 597.84375 410.679688 L 598.6875 411.039062 L 599.53125 411.386719 L 600.375 411.730469 L 601.214844 412.0625 L 602.058594 412.390625 L 602.902344 412.710938 L 603.746094 413.023438 L 604.589844 413.328125 L 605.433594 413.625 L 606.277344 413.917969 L 607.121094 414.203125 L 607.964844 414.480469 L 608.808594 414.753906 L 609.652344 415.019531 L 610.496094 415.277344 L 611.339844 415.53125 L 612.183594 415.777344 L 613.027344 416.019531 L 613.871094 416.253906 L 614.714844 416.484375 L 615.558594 416.710938 L 616.398438 416.929688 L 618.085938 417.351562 L 618.929688 417.554688 L 619.773438 417.753906 L 621.460938 418.136719 L 622.304688 418.320312 L 623.148438 418.5 L 624.835938 418.84375 L 625.679688 419.011719 L 626.523438 419.171875 L 628.210938 419.484375 L 629.898438 419.78125 L 630.738281 419.921875 L 632.425781 420.195312 L 633.269531 420.328125 L 634.957031 420.578125 L 635.800781 420.699219 L 637.488281 420.933594 L 639.175781 421.152344 L 640.019531 421.257812 L 641.707031 421.460938 L 642.550781 421.558594 L 644.238281 421.746094 L 645.078125 421.832031 L 645.921875 421.921875 L 648.453125 422.167969 L 649.296875 422.242188 L 650.140625 422.320312 L 650.984375 422.390625 L 651.828125 422.464844 L 654.359375 422.664062 L 656.046875 422.789062 L 657.734375 422.90625 L 659.421875 423.015625 L 660.261719 423.070312 L 661.105469 423.121094 L 661.949219 423.167969 L 662.792969 423.21875 L 663.636719 423.265625 L 664.480469 423.308594 L 665.324219 423.355469 L 666.167969 423.398438 L 669.542969 423.554688 L 672.074219 423.660156 L 672.917969 423.691406 L 673.761719 423.726562 L 674.601562 423.757812 L 675.445312 423.785156 L 676.289062 423.816406 L 678.820312 423.898438 L 679.664062 423.921875 L 680.507812 423.949219 L 682.195312 423.996094 L 683.039062 424.015625 L 683.882812 424.039062 L 684.726562 424.058594 L 685.570312 424.082031 L 686.414062 424.101562 L 687.257812 424.117188 L 688.101562 424.136719 L 688.941406 424.15625 L 694.003906 424.25 L 694.847656 424.261719 L 695.691406 424.277344 L 701.597656 424.359375 L 702.441406 424.367188 L 703.28125 424.378906 L 704.125 424.386719 L 704.96875 424.398438 L 711.71875 424.460938 L 712.5625 424.464844 L 714.25 424.480469 L 715.9375 424.488281 L 716.78125 424.496094 L 716.78125 424.628906 L 41.960938 424.628906 Z M 41.960938 424.496094 "/>
<g clip-path="url(#clip1)" clip-rule="nonzero">
<path style="fill:none;stroke-width:1.066978;stroke-linecap:butt;stroke-linejoin:round;stroke:rgb(0%,0%,0%);stroke-opacity:1;stroke-miterlimit:10;" d="M 8.21875 424.628906 L 750.519531 424.628906 "/>
</g>
<g clip-path="url(#clip2)" clip-rule="nonzero">
<path style="fill:none;stroke-width:2.133957;stroke-linecap:butt;stroke-linejoin:round;stroke:rgb(0%,0%,0%);stroke-opacity:1;stroke-dasharray:8.535827,8.535827;stroke-miterlimit:10;" d="M 379.371094 444.589844 L 379.371094 5.480469 "/>
</g>
<g style="fill:rgb(30.196078%,30.196078%,30.196078%);fill-opacity:1;">
  <use xlink:href="#glyph0-1" x="366.871094" y="479.734375"/>
</g>
</g>
</svg>
